Validating, ../result/ACC2HIT/HNSC/HNSC-combinations, against Tumor Training samples, /home/sajal/data//maf2dat-moderate/HNSC.maf2dat.matrix.out.training
Num genes = 18707 samples = 347 
Num combinations = 14
    4 combs for sample     0
    2 combs for sample     1
    2 combs for sample     2
    1 combs for sample     3
    1 combs for sample     4
    3 combs for sample     5
    2 combs for sample     6
    2 combs for sample     7
    3 combs for sample     8
    3 combs for sample     9
    1 combs for sample    10
    1 combs for sample    11
    1 combs for sample    12
    2 combs for sample    13
    1 combs for sample    14
    1 combs for sample    15
    2 combs for sample    16
    3 combs for sample    17
    2 combs for sample    18
    2 combs for sample    19
    2 combs for sample    20
    1 combs for sample    21
    3 combs for sample    22
    3 combs for sample    23
    3 combs for sample    24
    4 combs for sample    25
    2 combs for sample    26
    3 combs for sample    27
    2 combs for sample    28
    1 combs for sample    29
    3 combs for sample    30
    2 combs for sample    31
    2 combs for sample    32
    1 combs for sample    33
    1 combs for sample    34
    3 combs for sample    35
    3 combs for sample    36
    1 combs for sample    37
    1 combs for sample    38
    1 combs for sample    39
    3 combs for sample    40
    2 combs for sample    41
    2 combs for sample    42
    4 combs for sample    43
    4 combs for sample    44
    1 combs for sample    45
    2 combs for sample    46
    2 combs for sample    47
    3 combs for sample    48
    1 combs for sample    49
    2 combs for sample    50
    1 combs for sample    51
    2 combs for sample    52
    2 combs for sample    53
    3 combs for sample    54
    3 combs for sample    55
    3 combs for sample    56
    1 combs for sample    57
    2 combs for sample    58
    1 combs for sample    59
    2 combs for sample    60
    1 combs for sample    61
    1 combs for sample    62
    1 combs for sample    63
    2 combs for sample    64
    1 combs for sample    65
    1 combs for sample    66
    2 combs for sample    67
    2 combs for sample    68
    2 combs for sample    69
    2 combs for sample    70
    2 combs for sample    71
    4 combs for sample    72
    1 combs for sample    73
    2 combs for sample    74
    3 combs for sample    75
    2 combs for sample    76
    1 combs for sample    77
    2 combs for sample    78
    1 combs for sample    79
    2 combs for sample    80
    1 combs for sample    81
    3 combs for sample    82
    1 combs for sample    83
    2 combs for sample    84
    1 combs for sample    85
    1 combs for sample    86
    1 combs for sample    87
    1 combs for sample    88
    1 combs for sample    89
    1 combs for sample    90
    1 combs for sample    91
    3 combs for sample    92
    1 combs for sample    93
    2 combs for sample    94
    3 combs for sample    95
    3 combs for sample    96
    1 combs for sample    97
    2 combs for sample    98
    3 combs for sample    99
    3 combs for sample   100
    1 combs for sample   101
    2 combs for sample   102
    1 combs for sample   103
    2 combs for sample   104
    1 combs for sample   105
    1 combs for sample   106
    1 combs for sample   107
    2 combs for sample   108
    2 combs for sample   109
    1 combs for sample   110
    1 combs for sample   111
    1 combs for sample   112
    1 combs for sample   113
    1 combs for sample   114
    2 combs for sample   115
    1 combs for sample   116
    3 combs for sample   117
    1 combs for sample   118
    3 combs for sample   119
    3 combs for sample   120
    1 combs for sample   121
    1 combs for sample   122
    4 combs for sample   123
    1 combs for sample   124
    2 combs for sample   125
    1 combs for sample   126
    2 combs for sample   127
    2 combs for sample   128
    1 combs for sample   129
    1 combs for sample   130
    2 combs for sample   131
    2 combs for sample   132
    3 combs for sample   133
    1 combs for sample   134
    1 combs for sample   135
    2 combs for sample   136
    3 combs for sample   137
    2 combs for sample   138
    1 combs for sample   139
    3 combs for sample   140
    3 combs for sample   141
    1 combs for sample   142
    2 combs for sample   143
    1 combs for sample   144
    1 combs for sample   145
    1 combs for sample   146
    4 combs for sample   147
    1 combs for sample   148
    2 combs for sample   149
    1 combs for sample   150
    1 combs for sample   151
    1 combs for sample   152
    2 combs for sample   153
    2 combs for sample   154
    3 combs for sample   155
    1 combs for sample   156
    2 combs for sample   157
    2 combs for sample   158
    1 combs for sample   159
    2 combs for sample   160
    2 combs for sample   161
    1 combs for sample   162
    2 combs for sample   163
    2 combs for sample   164
    2 combs for sample   165
    4 combs for sample   166
    1 combs for sample   167
    3 combs for sample   168
    1 combs for sample   169
    1 combs for sample   170
    1 combs for sample   171
    1 combs for sample   172
    3 combs for sample   173
    1 combs for sample   174
    3 combs for sample   175
    1 combs for sample   176
    1 combs for sample   177
    2 combs for sample   178
    4 combs for sample   179
    3 combs for sample   180
    5 combs for sample   181
    2 combs for sample   182
    1 combs for sample   183
    2 combs for sample   184
    1 combs for sample   185
    2 combs for sample   186
    2 combs for sample   187
    1 combs for sample   188
    2 combs for sample   189
    1 combs for sample   190
    2 combs for sample   191
    3 combs for sample   192
    3 combs for sample   193
    1 combs for sample   194
    2 combs for sample   195
    2 combs for sample   196
    1 combs for sample   197
    1 combs for sample   198
    3 combs for sample   199
    3 combs for sample   200
    2 combs for sample   201
    1 combs for sample   202
    1 combs for sample   203
    2 combs for sample   204
    3 combs for sample   205
    3 combs for sample   206
    1 combs for sample   207
    3 combs for sample   208
    1 combs for sample   209
    1 combs for sample   210
    2 combs for sample   211
    1 combs for sample   212
    3 combs for sample   213
    1 combs for sample   214
    2 combs for sample   215
    1 combs for sample   216
    2 combs for sample   217
    4 combs for sample   218
    1 combs for sample   219
    1 combs for sample   220
    2 combs for sample   221
    2 combs for sample   222
    2 combs for sample   223
    1 combs for sample   224
    2 combs for sample   225
    2 combs for sample   226
    1 combs for sample   227
    3 combs for sample   228
    1 combs for sample   229
    2 combs for sample   230
    2 combs for sample   231
    2 combs for sample   232
    2 combs for sample   233
    1 combs for sample   234
    1 combs for sample   235
    1 combs for sample   236
    3 combs for sample   237
    1 combs for sample   238
    2 combs for sample   239
    2 combs for sample   240
    1 combs for sample   241
    5 combs for sample   242
    1 combs for sample   243
    3 combs for sample   244
    2 combs for sample   245
    1 combs for sample   246
    4 combs for sample   247
    1 combs for sample   248
    1 combs for sample   249
    1 combs for sample   250
    1 combs for sample   251
    1 combs for sample   252
    1 combs for sample   253
    2 combs for sample   254
    1 combs for sample   255
    1 combs for sample   256
    4 combs for sample   257
    2 combs for sample   258
    3 combs for sample   259
    1 combs for sample   260
    5 combs for sample   261
    3 combs for sample   262
    1 combs for sample   263
    1 combs for sample   264
    2 combs for sample   265
    1 combs for sample   266
    1 combs for sample   267
    1 combs for sample   268
    1 combs for sample   269
    1 combs for sample   270
    1 combs for sample   271
    1 combs for sample   272
    5 combs for sample   273
    1 combs for sample   274
    4 combs for sample   275
    1 combs for sample   276
    3 combs for sample   277
    3 combs for sample   278
    1 combs for sample   279
    1 combs for sample   280
    2 combs for sample   281
    1 combs for sample   282
    1 combs for sample   283
    1 combs for sample   284
    3 combs for sample   285
    1 combs for sample   286
    1 combs for sample   287
    1 combs for sample   288
    1 combs for sample   289
    3 combs for sample   290
    2 combs for sample   291
    3 combs for sample   292
    1 combs for sample   293
    1 combs for sample   294
    1 combs for sample   295
    1 combs for sample   296
    1 combs for sample   297
    2 combs for sample   298
    1 combs for sample   299
    1 combs for sample   300
    2 combs for sample   301
    2 combs for sample   302
    3 combs for sample   303
    1 combs for sample   304
    8 combs for sample   305
    1 combs for sample   306
    1 combs for sample   307
    1 combs for sample   308
    2 combs for sample   309
    2 combs for sample   310
    2 combs for sample   311
    1 combs for sample   312
    3 combs for sample   313
    1 combs for sample   314
    1 combs for sample   315
    1 combs for sample   316
    1 combs for sample   317
    1 combs for sample   318
    3 combs for sample   319
    4 combs for sample   320
    3 combs for sample   321
    2 combs for sample   322
    2 combs for sample   323
    2 combs for sample   324
    1 combs for sample   325
    1 combs for sample   326
    3 combs for sample   327
    2 combs for sample   328
    1 combs for sample   329
    3 combs for sample   330
    2 combs for sample   331
    5 combs for sample   332
    2 combs for sample   333
    1 combs for sample   334
    2 combs for sample   335
    2 combs for sample   336
    3 combs for sample   337
    1 combs for sample   338
    2 combs for sample   339
    2 combs for sample   340
    2 combs for sample   341
    1 combs for sample   342
    1 combs for sample   343
    2 combs for sample   344
    1 combs for sample   345
    2 combs for sample   346
Percent found 1.000000 
