C1663.TCGA-P8-A5KC-11A-11D-A35D-08.1_gdc_realn.bam 7df95b217b4d62dac3ab5235b5b615b2 C1663.TCGA-P8-A5KC-10A-01D-A35B-08.1_gdc_realn.bam c0bfdda8780a6d07a33bc4cca6af4945
C1663.TCGA-P8-A5KD-11A-11D-A35D-08.1_gdc_realn.bam 5284521d2af193135628023b256448ab C1663.TCGA-P8-A5KD-10A-01D-A35B-08.1_gdc_realn.bam b5a07b598599a4cb8782261029787ccc
C1663.TCGA-SQ-A6I4-11A-11D-A35I-08.2_gdc_realn.bam 39fbbc5310e5e7ad88f0b37e1ce16e70 C1663.TCGA-SQ-A6I4-10A-01D-A35G-08.2_gdc_realn.bam 6fc03d07034aa0452a7678afa75cf68e
C345.TCGA-B8-5552-11A-01D-1669-08.6_gdc_realn.bam e1d38681971bde901e33933c661cd435 C345.TCGA-B8-5552-10A-01D-1669-08.6_gdc_realn.bam 8fc7c45c0127b82ead79b1157366e3ff
C347.TCGA-44-2655-11A-01D-1553-08.1_gdc_realn.bam 49d0edde8d1313191e51f5b5d2bdec70 C347.TCGA-44-2655-10A-01W-0928-08.3_gdc_realn.bam 461a3458ae29514a42e6cc693eacfd4e
C347.TCGA-44-2656-11A-01D-1553-08.6_gdc_realn.bam 4aaf3119b4c43287524c39da01f5a69c C347.TCGA-44-2656-10A-01W-0928-08.8_gdc_realn.bam 1c0cc7a20e1ac0b7fe0ec43087737c59
C347.TCGA-44-2657-11A-01D-1553-08.1_gdc_realn.bam ffd0359239db1049f3982d87fddf13bd C347.TCGA-44-2657-10A-01D-1105-08.5_gdc_realn.bam f443ac5409171f0fbb4b6e4a67607845
C347.TCGA-44-2659-11A-01D-1553-08.1_gdc_realn.bam e9c65c461ca8ee3bc1da01c893753903 C347.TCGA-44-2659-10A-01W-0928-08.3_gdc_realn.bam b4455ff6d2233863bcb462129eddf5ef
C347.TCGA-44-2661-11A-01D-1553-08.1_gdc_realn.bam 8ea38181634c612165be066b603a800f C347.TCGA-44-2661-10A-01D-1105-08.5_gdc_realn.bam f76cd1e061a3d592fc55b84207cfb638
C347.TCGA-44-2662-11A-01D-1553-08.4_gdc_realn.bam 0f6067c0a41df177b8e4a15ad899449f C347.TCGA-44-2662-10A-01W-0928-08.6_gdc_realn.bam 780ac11601d0545cfb223f56b6be63a7
C347.TCGA-44-2665-11A-01D-1553-08.4_gdc_realn.bam 15d58bc3d64294bc76744fe1cbc018b4 C347.TCGA-44-2665-10A-01W-0928-08.6_gdc_realn.bam 21bfca8fc7b5e035f6c687c41521235b
C347.TCGA-44-2666-11A-21D-A27T-08.2_gdc_realn.bam 31c13c5769399401b5aee1fd22679820 C347.TCGA-44-2666-10A-01W-0928-08.8_gdc_realn.bam 4127197468e1df2dff15339b410c66ba
C347.TCGA-44-2668-11A-01D-1553-08.4_gdc_realn.bam 663a8e15a14271ba138318bfbdb96ebb C347.TCGA-44-2668-10A-01W-0928-08.6_gdc_realn.bam 2ca5f0b69c6df3108dcc8477e57786de
C347.TCGA-44-3396-11A-01D-1553-08.1_gdc_realn.bam 1aaed7dc2c628fecd932a32d3b34eb06 C347.TCGA-44-3396-10A-01D-1265-08.3_gdc_realn.bam 8132942df12c2a779b521d5627346981
C347.TCGA-44-3918-11A-01D-1105-08.10_gdc_realn.bam 9fe305cb8ac333f0fa3632e61e19d22d C347.TCGA-44-3918-10A-01D-A271-08.4_gdc_realn.bam 5cfa95062ec70bb6405aceaa80814fc0
C347.TCGA-44-3919-11A-01D-1105-08.7_gdc_realn.bam 06764a17d852e9ff608eba4e5756fbfe C347.TCGA-44-3919-10A-01D-1458-08.1_gdc_realn.bam aaf08e9e82e76d3fca880d785485b056
C347.TCGA-44-4112-11A-01D-1105-08.12_gdc_realn.bam 516ecc3231f497a36b4a1c59a165010b C347.TCGA-44-4112-10A-01D-A271-08.5_gdc_realn.bam bab6aa06b339ea6ea8995b5392923f7a
C440.TCGA-BR-6452-11A-01D-1800-08.3_gdc_realn.bam 2126dc13209b33386677a926ce62f091 C440.TCGA-BR-6452-10A-01D-1800-08.3_gdc_realn.bam aae0729ca438d2cd5f0a747e0032875a
C440.TCGA-BR-6456-11A-01D-1800-08.3_gdc_realn.bam 654c99acff5c070e3f6c1153d81baa2e C440.TCGA-BR-6456-10A-01D-1800-08.3_gdc_realn.bam ec690c76baadcce000b44c424cab01fa
C440.TCGA-BR-6457-11A-01D-1800-08.3_gdc_realn.bam 4ff4ebbb1988715a5cdaa74d0ce8801a C440.TCGA-BR-6457-10A-01D-1800-08.3_gdc_realn.bam 0a630f59ec4fd121c29b64b19215d292
C440.TCGA-BR-6458-11A-01D-1800-08.3_gdc_realn.bam 3eec4db47b7f70f7245bea7656f141b6 C440.TCGA-BR-6458-10A-01D-1800-08.3_gdc_realn.bam f24052622e7fb8a36f19fcb19ef86844
C440.TCGA-BR-6564-11A-01D-1882-08.6_gdc_realn.bam f0affab159cbddc6e8c62473e902663b C440.TCGA-BR-6564-10A-01D-1882-08.6_gdc_realn.bam 7d78b6039818c5dedbbb8414605f4270
C440.TCGA-BR-6566-11A-01D-1800-08.6_gdc_realn.bam fa9edc0e80d0db9dff3c5729b7150a3b C440.TCGA-BR-6566-10A-01D-1800-08.6_gdc_realn.bam e34e153de8dc4c877e1878d9a4aa7f3e
C440.TCGA-BR-6706-11A-01D-1882-08.6_gdc_realn.bam f93c4cde6e86ff2603eb6f3095961e69 C440.TCGA-BR-6706-10A-01D-1882-08.6_gdc_realn.bam cdc58f1587353d06b24475496dbb4db1
C440.TCGA-BR-6709-11A-01D-1882-08.6_gdc_realn.bam 05d60c199da7c97d4865774508aa2811 C440.TCGA-BR-6709-10A-01D-1882-08.6_gdc_realn.bam c334670c4039fa62b0f41908072654f1
C440.TCGA-BR-6710-11A-01D-1882-08.6_gdc_realn.bam 4b1a938cdf3edd4d649f7e29827b550f C440.TCGA-BR-6710-10A-01D-1882-08.6_gdc_realn.bam 32bb79ac319af6f9198f65fc96ab5411
C440.TCGA-BR-6802-11A-01D-1882-08.6_gdc_realn.bam 36e431a35d4e5ed2f21dbf4b8903c54f C440.TCGA-BR-6802-10A-01D-1882-08.6_gdc_realn.bam 90cf9c903bf8b80b3823ca7664f89cef
C440.TCGA-BR-6803-11A-01D-1882-08.6_gdc_realn.bam de7970ccac4bc7e74cb420dce9e6d7b3 C440.TCGA-BR-6803-10A-01D-1882-08.6_gdc_realn.bam ffe817f35249cbbb73a0043bcdbacc99
C440.TCGA-BR-6852-11A-01D-1882-08.6_gdc_realn.bam 2889817b48b7b8997eb7a6568a931768 C440.TCGA-BR-6852-10A-01D-1882-08.6_gdc_realn.bam 0ade1d0d3fc75c5ec71ce5cbfba1b5c5
C440.TCGA-BR-7197-11A-01D-2201-08.8_gdc_realn.bam 5127a5de893433ef0791b59207032f12 C440.TCGA-BR-7197-10A-01D-2201-08.8_gdc_realn.bam 7b370fa6f2d08bf4a2def529c7309fc9
C440.TCGA-BR-7703-11A-01D-2053-08.1_gdc_realn.bam 04ecf458c836b50a7635e62c02801213 C440.TCGA-BR-7703-10A-01D-2053-08.2_gdc_realn.bam cbb7f49b324918f7fddb24892df58f18
C440.TCGA-BR-7704-11A-01D-2053-08.2_gdc_realn.bam ba4abbafc4ce1ec934426ebe81ced224 C440.TCGA-BR-7704-10A-01D-2053-08.1_gdc_realn.bam 7fea5952f18756766cb2c279538e2436
C440.TCGA-BR-7715-11A-01D-2053-08.2_gdc_realn.bam 8f9a4b90f80d62c1ad13370a88878f10 C440.TCGA-BR-7715-10A-01D-2053-08.2_gdc_realn.bam 190983f56880969da05b9dc0494fe5a5
C440.TCGA-BR-7716-11A-01D-2053-08.2_gdc_realn.bam 347a0572a8e21382d300cb630a3a537e C440.TCGA-BR-7716-10A-01D-2053-08.2_gdc_realn.bam 4a7fdaf1e4ed0dbe3d84ca4217db479e
C440.TCGA-BR-7717-11A-01D-2053-08.2_gdc_realn.bam 15b0bd4d5125fa606495d4ccc4252cb8 C440.TCGA-BR-7717-10A-01D-2053-08.2_gdc_realn.bam bec92643f3e5f11591a14b429bf2db27
C440.TCGA-BR-7851-11A-01D-2201-08.6_gdc_realn.bam b18888d85b81dccec43e8bc90bdfc79f C440.TCGA-BR-7851-10A-01D-2201-08.6_gdc_realn.bam 1cb73f7aa7a47751da4dcc42ef885109
C440.TCGA-BR-7957-11A-01D-2201-08.6_gdc_realn.bam f5e060b2ce715761668c137adcff4824 C440.TCGA-BR-7957-10A-01D-2201-08.6_gdc_realn.bam 09b7b57a2c8235d345c2dc4a1094ad67
C440.TCGA-EQ-5647-11A-01D-1600-08.6_gdc_realn.bam bcd6e36999caf64c2aa12e788842b6d8 C440.TCGA-EQ-5647-10A-01D-1600-08.6_gdc_realn.bam 07452f1a063a72b608803e3752fa474b
C440.TCGA-EQ-A4SO-11A-11D-A25E-08.3_gdc_realn.bam 0faa74995e88e7f28169bf01e29c1320 C440.TCGA-EQ-A4SO-10A-01D-A25E-08.2_gdc_realn.bam 65fd9d26dbb89826de89b807d7f703aa
C440.TCGA-FP-7735-11A-01D-2053-08.2_gdc_realn.bam 353d577e7e6a104c6a58d1eeb268632e C440.TCGA-FP-7735-10A-01D-2053-08.2_gdc_realn.bam aa74e06178588ddd9bb692549bcb0508
C440.TCGA-FP-7829-11A-01D-2053-08.2_gdc_realn.bam 7883ca9247da1ffe62157d921a669f47 C440.TCGA-FP-7829-10A-01D-2053-08.2_gdc_realn.bam 33979f8a3a04e432a3e5c02b65a38f2f
C440.TCGA-HU-8602-11A-01D-2394-08.1_gdc_realn.bam 2e3d8d4669e8e50bf471fe6561b4976e C440.TCGA-HU-8602-10A-01D-2394-08.1_gdc_realn.bam 8758d13f38db245587cffe355a40de3d
C440.TCGA-HU-8604-11A-01D-2394-08.2_gdc_realn.bam b71265b7ed2997575d71b9ad9ebc9f94 C440.TCGA-HU-8604-10A-01D-2394-08.2_gdc_realn.bam 8d5bb0b8b23612c4345de8dc7015da84
C440.TCGA-HU-8608-11A-01D-2394-08.2_gdc_realn.bam f26c34fe09a0dc08dcab1e3d1df5fd84 C440.TCGA-HU-8608-10A-01D-2394-08.4_gdc_realn.bam c61c4f0e60b50a5804762ad2ee074ae3
C440.TCGA-HU-8610-11A-01D-2394-08.2_gdc_realn.bam b2c7e5f1e5a44dca669d4e2b9805d77a C440.TCGA-HU-8610-10A-01D-2394-08.2_gdc_realn.bam 739c539127c8deb40788d0dd725f468d
C440.TCGA-HU-A4G3-11A-11D-A24D-08.2_gdc_realn.bam 3290dbf5391f5cb977a0def47d14554e C440.TCGA-HU-A4G3-10A-01D-A24F-08.2_gdc_realn.bam 4188986f77db92a2907c3c6f149c6b10
C440.TCGA-HU-A4G9-11A-11D-A24D-08.2_gdc_realn.bam bce4323e79b5ae37d7e0fa69a39b9553 C440.TCGA-HU-A4G9-10A-01D-A24F-08.2_gdc_realn.bam a11527353a63c881a97348c2c7ff1b0c
C440.TCGA-HU-A4GC-11A-11D-A25E-08.3_gdc_realn.bam e191811253e8d550dcd16166d7509208 C440.TCGA-HU-A4GC-10A-01D-A25E-08.2_gdc_realn.bam a1cfdf85c9911f637d30df03dfca2f24
C440.TCGA-HU-A4GH-11A-11D-A24F-08.4_gdc_realn.bam 0bbf9e53a0c59ab2e4660fba083b13e5 C440.TCGA-HU-A4GH-10A-01D-A24F-08.4_gdc_realn.bam 2ea9a006841c8d485afd591406ed232d
C440.TCGA-HU-A4GN-11A-12D-A25E-08.1_gdc_realn.bam b38d8b1c17874200828ab5d838a678bf C440.TCGA-HU-A4GN-10A-01D-A25E-08.1_gdc_realn.bam f4fa8377c7b3d747e55f5aa2831fcc47
C440.TCGA-HU-A4GP-11A-21D-A25E-08.2_gdc_realn.bam 0b48adb68cc76f024c3466af8fc59d63 C440.TCGA-HU-A4GP-10A-01D-A25E-08.2_gdc_realn.bam c5a979ff622f86f374234eef881d066d
C440.TCGA-HU-A4GX-11A-11D-A25E-08.3_gdc_realn.bam 4726b0fe22f8820c288e1f5d95d29b0b C440.TCGA-HU-A4GX-10A-01D-A25E-08.2_gdc_realn.bam a66569fe0ee327c2c7bdd93e5a2c40f4
C440.TCGA-HU-A4GY-11A-11D-A24F-08.3_gdc_realn.bam 4e176dc419dfc868284247acfac300b8 C440.TCGA-HU-A4GY-10A-01D-A24F-08.5_gdc_realn.bam 8874576b84e1fab7278c6079eb80f764
C440.TCGA-HU-A4HB-11A-11D-A25E-08.7_gdc_realn.bam 490b96047163b8804600b5c71e7f9f14 C440.TCGA-HU-A4HB-10A-01D-A25E-08.6_gdc_realn.bam 1c89c6ffc640bf3e0396e45d5a61d171
C440.TCGA-IN-7806-11A-01D-2053-08.1_gdc_realn.bam aa02c4cbed4303cb39062d7dc2b5b7c5 C440.TCGA-IN-7806-10A-01D-2053-08.1_gdc_realn.bam 9e20528a297cfcdfec5382564db7e5de
C440.TCGA-IN-7808-11A-01D-2201-08.6_gdc_realn.bam ae0ced34de272b664054b7b5335c9f8a C440.TCGA-IN-7808-10A-01D-2201-08.6_gdc_realn.bam dbfea32477503bbf15bfcbbf206042af
C440.TCGA-IN-8663-11A-01D-2394-08.1_gdc_realn.bam 15c1b1768283ff3dc3511a609640a378 C440.TCGA-IN-8663-10A-01D-2394-08.1_gdc_realn.bam 35a795dc4cd5c90eec85e3f0b211f866
C440.TCGA-IP-7968-11A-01D-2201-08.6_gdc_realn.bam e7aa701c9eae647c441c8aff379ecf76 C440.TCGA-IP-7968-10A-01D-2201-08.6_gdc_realn.bam 989e7e12d345bb15d92938046103d322
C489.TCGA-A4-8515-11A-01D-2396-08.3_gdc_realn.bam 000e282518377c48a4c0b3c51496a98a C489.TCGA-A4-8515-10A-01D-2396-08.3_gdc_realn.bam eea868ea79e7ad7caeae1d6957f23b4e
C489.TCGA-A4-8518-11A-01D-2396-08.4_gdc_realn.bam 30788444d93d4b9ddcfd4a2e327744d5 C489.TCGA-A4-8518-10A-01D-2396-08.3_gdc_realn.bam e68dac4128bf20d4d17482033a2f97cd
C489.TCGA-B3-3925-11A-01D-1252-08.10_gdc_realn.bam c512384d6f702ac22e5a2c52ecbf1bdb C489.TCGA-B3-3925-10A-01D-1458-08.10_gdc_realn.bam edcb14802307ce8894398f4deadad38c
C489.TCGA-B3-4103-11A-01D-1252-08.10_gdc_realn.bam 72ac216ad7c8a744fb035ca19ad9a7e8 C489.TCGA-B3-4103-10A-01D-1458-08.11_gdc_realn.bam 5a4e4923f250936c7ecba88a40cabfdf
C489.TCGA-B3-4104-11A-01D-1252-08.10_gdc_realn.bam 99481aa4c0302a59e8045ba83241da84 C489.TCGA-B3-4104-10A-01D-1458-08.11_gdc_realn.bam 05df6866a5da0e338fb820d0e7933153
C489.TCGA-B9-4115-11A-01D-1553-08.10_gdc_realn.bam 0d5b106c31dc5c0de4c4e93d74151cec C489.TCGA-B9-4115-10A-01D-1252-08.8_gdc_realn.bam d20b6cae59fc7f77adeee788515dc6be
C489.TCGA-DZ-6133-11A-01D-1961-08.2_gdc_realn.bam 556cd12fb6ee48ac1ca0447a06a11bab C489.TCGA-DZ-6133-10A-01D-1962-08.2_gdc_realn.bam f253f61a5c8c28a36b31a2ab379206fe
C489.TCGA-DZ-6134-11A-01D-1961-08.2_gdc_realn.bam 1ea5209dc9f848a23cf238b1c0fb119f C489.TCGA-DZ-6134-10A-01D-1962-08.2_gdc_realn.bam 0f86994def6efa0416af988f92d1b5ea
C489.TCGA-DZ-6135-11A-01D-1961-08.2_gdc_realn.bam 22addad453559ef9620247f7668a160a C489.TCGA-DZ-6135-10A-01D-1962-08.2_gdc_realn.bam 4c37338705bbd86e16eb70f72199d7ae
C489.TCGA-GL-6846-11A-01D-1961-08.2_gdc_realn.bam afb9e3328ec99fdce3bcde32ee64f6ce C489.TCGA-GL-6846-10A-01D-1962-08.2_gdc_realn.bam 177fe544e5b19779b2788d262784a3f3
C489.TCGA-GL-7966-11A-01D-2201-08.1_gdc_realn.bam 98a0dfb75b90289b9ee55176d5c8fb38 C489.TCGA-GL-7966-10A-01D-2201-08.1_gdc_realn.bam ae170c78ce7cb090884a38e7a5181c21
C489.TCGA-GL-8500-11A-01D-2396-08.1_gdc_realn.bam 7cd7faa31686ef5765fe68d18a336381 C489.TCGA-GL-8500-10A-01D-2396-08.1_gdc_realn.bam b95103e537c490d2151b1650beea2046
C489.TCGA-IZ-8195-11A-01D-2396-08.1_gdc_realn.bam 60af08c76f69f8ad6e33e2f3492b22a3 C489.TCGA-IZ-8195-10A-01D-2396-08.1_gdc_realn.bam ef55df65661226092a091d8be187d545
C489.TCGA-IZ-8196-11A-01D-2396-08.1_gdc_realn.bam 945c7966fe86155ff0b1532c551d2b8d C489.TCGA-IZ-8196-10A-01D-2396-08.1_gdc_realn.bam 0be109330b528d3a1ee9b03ddd9d436f
C495.TCGA-CV-5436-11A-01D-1512-08.5_gdc_realn.bam 9c2b6b1f2c5f5c73c50ecc385d94e84d C495.TCGA-CV-5436-10A-01D-1870-08.5_gdc_realn.bam b628980d208f4f9d5cf1fd3cf0bb6dbb
C495.TCGA-CV-5966-11A-01D-1683-08.2_gdc_realn.bam 92c1efe6a91f221fc5f6c184a119c83f C495.TCGA-CV-5966-10A-01D-1870-08.4_gdc_realn.bam 00be6c856793bab66b72372ad4d8a143
C495.TCGA-CV-5970-11A-01D-1683-08.2_gdc_realn.bam 639c8ec4e674391754f29af4adf38d82 C495.TCGA-CV-5970-10A-01D-1870-08.4_gdc_realn.bam 7a581553627ba9cc71cff1e3be72aa9f
C495.TCGA-CV-6933-11A-01D-1912-08.4_gdc_realn.bam 821136309d8568f0fc12cae0ee812c8c C495.TCGA-CV-6933-10A-01D-1912-08.4_gdc_realn.bam de6ba1873ec220411fa0b28406bd41f1
C495.TCGA-CV-6934-11A-01D-1912-08.4_gdc_realn.bam 0a63f6c5717377983a42fee6549995b0 C495.TCGA-CV-6934-10A-01D-1912-08.4_gdc_realn.bam a5d7926ca0be562dff90234ed4d18ae2
C495.TCGA-CV-6935-11A-01D-1912-08.4_gdc_realn.bam 97fdd56bcfdc186f9c11535cea3990db C495.TCGA-CV-6935-10A-01D-1912-08.4_gdc_realn.bam cf9daf233e720cd134ce93002ff70dbf
C495.TCGA-CV-6936-11A-01D-1912-08.4_gdc_realn.bam c33d431936f733aa3698becefaf498fb C495.TCGA-CV-6936-10A-01D-1912-08.4_gdc_realn.bam 4be6771b3351371945d7e149658f99da
C495.TCGA-CV-6938-11A-01D-1912-08.4_gdc_realn.bam 2e67a1efe0181d6c9212f28b05a97d10 C495.TCGA-CV-6938-10A-01D-1912-08.4_gdc_realn.bam 4fa3c0d55cd797911d18a27410a671a6
C495.TCGA-CV-6939-11A-01D-1912-08.4_gdc_realn.bam 25ffd0b787a47d3361f3ba1f84846de5 C495.TCGA-CV-6939-10A-01D-1912-08.4_gdc_realn.bam 6a4771c0ed8bb84042ef70dc40a9c8ab
C495.TCGA-CV-6943-11A-01D-1912-08.4_gdc_realn.bam fbfba81bf88fa07501bc3b99178cf79e C495.TCGA-CV-6943-10A-01D-1912-08.4_gdc_realn.bam 315cc289ccdeae8f6084e7afa9750a54
C495.TCGA-CV-6951-11A-01D-1912-08.4_gdc_realn.bam ff65e102a42e7ada63b3c92599aeed73 C495.TCGA-CV-6951-10A-01D-1912-08.4_gdc_realn.bam 1fefae51d795355c9912fbd6d8458a1b
C495.TCGA-CV-6952-11A-01D-1912-08.4_gdc_realn.bam 19a1c85fafba5b0f36f4889f8cae47b8 C495.TCGA-CV-6952-10A-01D-1912-08.4_gdc_realn.bam 0f26d66de014d3fece48d8779fdeede0
C495.TCGA-CV-6953-11A-01D-1912-08.4_gdc_realn.bam 74b7e826af4dabfedf66ec681896e390 C495.TCGA-CV-6953-10A-01D-1912-08.4_gdc_realn.bam 947d012f02bb616860cc40226687ec89
C495.TCGA-CV-6954-11A-01D-1912-08.4_gdc_realn.bam aadc66fecddfb7951fd837135c728981 C495.TCGA-CV-6954-10A-01D-1912-08.4_gdc_realn.bam be3d1ef37020983c0071b748b2d2584a
C495.TCGA-CV-6955-11A-01D-2012-08.1_gdc_realn.bam a344eb70b7974874e4fba0e19ea39ac3 C495.TCGA-CV-6955-10A-01D-2013-08.1_gdc_realn.bam 6b17f0a88f079c9e9e020c6dbcf96440
C495.TCGA-CV-6956-11A-01D-2012-08.1_gdc_realn.bam 260ba2fdbc17c0baa9ba54a523043940 C495.TCGA-CV-6956-10A-01D-2013-08.1_gdc_realn.bam 32d5373d4aae99d4df7f545fd56d2cbf
C495.TCGA-CV-6959-11A-01D-1912-08.4_gdc_realn.bam 39300129d160051e9b716e1a3f7684d0 C495.TCGA-CV-6959-10A-01D-1912-08.4_gdc_realn.bam 9f40638271e5d4972078ea61349cf7b4
C495.TCGA-CV-6960-11A-01D-2012-08.1_gdc_realn.bam cd2b3a5a641d5d3cf5e1f5a15d3fb993 C495.TCGA-CV-6960-10A-01D-2013-08.1_gdc_realn.bam 935a70c93b2e09c8a9cdae0ae2fca933
C495.TCGA-CV-6961-11A-01D-1912-08.4_gdc_realn.bam 65952f27887aefdf0c22fc48a463e74d C495.TCGA-CV-6961-10A-01D-1912-08.4_gdc_realn.bam 94b93c4d1c8e95c1e707e9f65db5eee6
C495.TCGA-CV-6962-11A-01D-1912-08.3_gdc_realn.bam bc98ca96f2575e940e8fce5e760bda33 C495.TCGA-CV-6962-10A-01D-1912-08.4_gdc_realn.bam 606a546744b3b87b3f4349e64d69bcc0
C495.TCGA-CV-7089-11A-01D-2012-08.1_gdc_realn.bam 61810279f34a0ed7af1fee0bbcf0dc5b C495.TCGA-CV-7089-10A-01D-2013-08.1_gdc_realn.bam 1781325cfc9a10f5f656ef968de81cc1
C495.TCGA-CV-7091-11A-01D-2012-08.1_gdc_realn.bam 0555ffee6bbe44773164921f7695497f C495.TCGA-CV-7091-10A-01D-2013-08.1_gdc_realn.bam 0473c1d5f69ddda0f11a30b8309b9a58
C495.TCGA-CV-7095-11A-01D-2012-08.1_gdc_realn.bam 0440320c44d1fc1055e54aa92e30ef90 C495.TCGA-CV-7095-10A-01D-2013-08.1_gdc_realn.bam d60645f55f9913d4474f9785a9abe199
C495.TCGA-CV-7097-11A-01D-2012-08.1_gdc_realn.bam 7118d5e97c2720d706136dd1b5a65939 C495.TCGA-CV-7097-10A-01D-2013-08.1_gdc_realn.bam dac7f78ec76b17be5fe89443c2ea0be8
C495.TCGA-CV-7101-11A-01D-2012-08.1_gdc_realn.bam c8eb586da924b038c96162eace9422b3 C495.TCGA-CV-7101-10A-01D-2013-08.1_gdc_realn.bam 793d8370ef96d51938afaa09be9256b8
C495.TCGA-CV-7103-11A-01D-2012-08.1_gdc_realn.bam 48b9ac968bff902ee6ac8b26a62af14f C495.TCGA-CV-7103-10A-01D-2013-08.1_gdc_realn.bam e5cb1d17ae7b6cde32510e48da9dd926
C495.TCGA-CV-7177-11A-01D-2012-08.1_gdc_realn.bam 94fe4186bf2902fbe05d89a868c4e4dc C495.TCGA-CV-7177-10A-01D-2013-08.1_gdc_realn.bam 36481a26d9ecebc8432f81e917fae9d5
C495.TCGA-CV-7178-11A-01D-2012-08.1_gdc_realn.bam 9ad07abd0ffa44914c5ab031f40288ad C495.TCGA-CV-7178-10A-01D-2013-08.1_gdc_realn.bam df96ab5015727e05d2fa78999f648e24
C495.TCGA-CV-7183-11A-01D-2012-08.1_gdc_realn.bam ab2e95c449d5d7752eb0cb101aad9a7f C495.TCGA-CV-7183-10A-01D-2013-08.1_gdc_realn.bam ad8bcfc0b6a167f5ca9171809cc00851
C495.TCGA-CV-7235-11A-01D-2012-08.1_gdc_realn.bam 74fbfeb197f5e5f2344c4cfe8df4e082 C495.TCGA-CV-7235-10A-01D-2013-08.1_gdc_realn.bam dbc4d9eefdfb9b85fd96383d24adfb36
C495.TCGA-CV-7238-11A-01D-2012-08.1_gdc_realn.bam eb64c5cddcc86450637a1dead0dff952 C495.TCGA-CV-7238-10A-01D-2013-08.1_gdc_realn.bam a0687fb3c93fb2c8a9c26d9748461d26
C495.TCGA-CV-7242-11A-01D-2012-08.1_gdc_realn.bam 794bfdd27e5f8e61950398ae23995b5e C495.TCGA-CV-7242-10A-01D-2013-08.1_gdc_realn.bam c7dab549ad2616dcaf5524acd1a17337
C495.TCGA-CV-7245-11A-01D-2012-08.1_gdc_realn.bam 8f709d36f38ffb4d86105c92a5fc80bb C495.TCGA-CV-7245-10A-01D-2013-08.1_gdc_realn.bam 1f4336fdfa74517a2a222a4d65d5395d
C495.TCGA-CV-7247-11A-01D-2012-08.1_gdc_realn.bam 30b674898bdf0b89d09987611aeccd5d C495.TCGA-CV-7247-10A-01D-2013-08.1_gdc_realn.bam c6b2ccc2bb0a85651871a30657219cb6
C495.TCGA-CV-7248-11A-01D-2012-08.1_gdc_realn.bam 54946cfc9977a7bc89e7c25c8c0dca00 C495.TCGA-CV-7248-10A-01D-2013-08.1_gdc_realn.bam 6785b5208840ae254f8da425d5ffac13
C495.TCGA-CV-7250-11A-01D-2012-08.1_gdc_realn.bam 4a53ce8c8b299dbe7de8e75c3c419636 C495.TCGA-CV-7250-10A-01D-2013-08.1_gdc_realn.bam fed1d09b0fee2a34306fbd270251c315
C495.TCGA-CV-7252-11A-01D-2012-08.1_gdc_realn.bam b70eb6a373ffbf41b73daa394211e653 C495.TCGA-CV-7252-10A-01D-2013-08.1_gdc_realn.bam 0b93dbc50041eef5414efde703490431
C495.TCGA-CV-7255-11A-01D-2012-08.1_gdc_realn.bam 64d84335886c7175f039a03cdf4df694 C495.TCGA-CV-7255-10A-01D-2013-08.1_gdc_realn.bam 75240395158a1aa8de4583117e873902
C495.TCGA-CV-7261-11A-01D-2012-08.1_gdc_realn.bam 88c83fea0dd53dee4fde8204dc37808b C495.TCGA-CV-7261-10A-01D-2013-08.1_gdc_realn.bam bfae1a25961ec2d23f661a6858ec02fb
C495.TCGA-CV-7263-11A-01D-2012-08.1_gdc_realn.bam b47c30e169dba2ddacdcdae31f46ddb3 C495.TCGA-CV-7263-10A-01D-2013-08.1_gdc_realn.bam 906aec68559fde9faee6e07bd1a4eec9
C495.TCGA-CV-7406-11A-01D-2078-08.1_gdc_realn.bam 95ee678962b4f9e24ca6cd6a72c98bc6 C495.TCGA-CV-7406-10A-01D-2078-08.1_gdc_realn.bam 4f4a4d81c5b0327d6b125900ac401d92
C495.TCGA-CV-7413-11A-01D-2078-08.1_gdc_realn.bam da12ec4e11450402ca53ea70ca536fff C495.TCGA-CV-7413-10A-01D-2078-08.1_gdc_realn.bam 2d19e56ebb6e2dc8a4f487674959b59d
C495.TCGA-CV-7416-11A-01D-2078-08.1_gdc_realn.bam ca78f5a0d90098799fbac6acd4ead2d9 C495.TCGA-CV-7416-10A-01D-2078-08.1_gdc_realn.bam 643b375bfd2e1f986d1413f4583202af
C495.TCGA-CV-7418-11A-01D-2078-08.1_gdc_realn.bam 68a0efe9b3a4e004e14f5ca8615537c7 C495.TCGA-CV-7418-10A-01D-2078-08.1_gdc_realn.bam 4d00ca3845305ed656eded9ff92494f8
C495.TCGA-CV-7423-11A-01D-2078-08.1_gdc_realn.bam 8376427a3baed8a21c8cfd31c5f5a491 C495.TCGA-CV-7423-10A-01D-2078-08.1_gdc_realn.bam c3b3a8524387cef45bc0e215565ad5d6
C495.TCGA-CV-7424-11A-01D-2078-08.1_gdc_realn.bam 6a3a2d1627fc52c14e97d4fa10b3beda C495.TCGA-CV-7424-10A-01D-2078-08.3_gdc_realn.bam 754ce174db6d79e764e4fc45c55f79a9
C495.TCGA-CV-7425-11A-01D-2078-08.1_gdc_realn.bam 63a656ca9751b3066a043acf494bc2ec C495.TCGA-CV-7425-10A-01D-2078-08.1_gdc_realn.bam 1317f2cdeb774483bbb2bdd12d39f261
C495.TCGA-CV-7430-11A-01D-2129-08.1_gdc_realn.bam 2af14d3f296f88d8a16b1d1530f38c22 C495.TCGA-CV-7430-10A-01D-2129-08.4_gdc_realn.bam 52f29729c5c85101e93c9fef8ee2eea8
C495.TCGA-CV-7432-11A-01D-2129-08.1_gdc_realn.bam 19ece29bfaf5704bddab998bcb2bc6e2 C495.TCGA-CV-7432-10A-01D-2129-08.1_gdc_realn.bam 327f55e255284d284b8d9379744efc0c
C495.TCGA-CV-7434-11A-01D-2129-08.1_gdc_realn.bam e7fb96db44e0de2a329bea7427419574 C495.TCGA-CV-7434-10A-01D-2129-08.2_gdc_realn.bam 76654ac35d53709f432d977af3b26399
C495.TCGA-CV-7435-11A-01D-2129-08.1_gdc_realn.bam cde2d7f8c6100b1dc206882c83d34168 C495.TCGA-CV-7435-10A-01D-2129-08.1_gdc_realn.bam 9ab74809fea915be786239341249a7b6
C495.TCGA-CV-7437-11A-01D-2129-08.1_gdc_realn.bam 5884d8ddd6d0a4f47d55f8dd01346024 C495.TCGA-CV-7437-10A-01D-2129-08.1_gdc_realn.bam 8be3f794e707520a03b2f76b375ffcd9
C495.TCGA-CV-7438-11A-01D-2129-08.1_gdc_realn.bam f02d11e7f2c98ba393a32bf098dc5c71 C495.TCGA-CV-7438-10A-01D-2129-08.1_gdc_realn.bam d69f0a8c4b4672d15cadfcc5afcc7f72
C495.TCGA-CV-7440-11A-01D-2129-08.1_gdc_realn.bam f846f2b94f14e41909c1d2a9d0db9df8 C495.TCGA-CV-7440-10A-01D-2129-08.1_gdc_realn.bam 778c51a80d89fccc27715bbf2f54e157
C495.TCGA-HD-8635-11A-01D-2394-08.1_gdc_realn.bam ae138f347c70df732d3c86ae8ac8427c C495.TCGA-HD-8635-10A-01D-2394-08.1_gdc_realn.bam 64e4c1aa8df60a7d30820cd36e5aada1
C499.TCGA-BJ-A28R-11A-11D-A16O-08.2_gdc_realn.bam 8348afb7c7376ea914772d2c44912dd9 C499.TCGA-BJ-A28R-10A-01D-A16O-08.2_gdc_realn.bam 5b172bfab44b55bf1d5e0fecbcb0522b
C499.TCGA-BJ-A28T-11A-11D-A17V-08.1_gdc_realn.bam 13c8a23dacc3a3d219b6083232fe459b C499.TCGA-BJ-A28T-10A-01D-A16O-08.4_gdc_realn.bam d5c81c57e7f70a76e24c8d271c2b6b1d
C499.TCGA-BJ-A28W-11A-11D-A16O-08.4_gdc_realn.bam e2967e3a499ee6fe21adfdc7ef03be89 C499.TCGA-BJ-A28W-10A-01D-A17V-08.1_gdc_realn.bam 1589a6d4149879002eba7fad508815a3
C499.TCGA-BJ-A28X-11A-11D-A22D-08.1_gdc_realn.bam 580c987b2076d60486afbca2cfb9ea43 C499.TCGA-BJ-A28X-10A-01D-A22D-08.1_gdc_realn.bam 3f3ded833b1498e09eadb6dc13e8546e
C499.TCGA-BJ-A290-11A-11D-A17V-08.1_gdc_realn.bam 9e7a290d648b68c37579c909c0be8eaf C499.TCGA-BJ-A290-10A-01D-A17V-08.1_gdc_realn.bam e2685e74444e3ad55558328e4b40324f
C499.TCGA-BJ-A2N7-11A-11D-A18F-08.1_gdc_realn.bam 5162df6c00ff559516d774c3e6ffad89 C499.TCGA-BJ-A2N7-10A-01D-A18F-08.1_gdc_realn.bam 82a257b67868a571e247818a3d704016
C499.TCGA-BJ-A2N8-11A-11D-A18F-08.1_gdc_realn.bam 9f343f65747c16b7281bd73cb78e881c C499.TCGA-BJ-A2N8-10A-01D-A18F-08.1_gdc_realn.bam 58a4a58772c92ddfb3cdfa187c14fa49
C499.TCGA-BJ-A2N9-11A-11D-A18F-08.1_gdc_realn.bam 368a36c85fa16dae0d6273c878a40c0e C499.TCGA-BJ-A2N9-10A-01D-A18F-08.1_gdc_realn.bam f1d3848924085ee0ec825c4bb1c1f64a
C499.TCGA-BJ-A2NA-11A-11D-A19J-08.2_gdc_realn.bam 5fe7b3ed54bc90a157b63e1b36b2cfda C499.TCGA-BJ-A2NA-10A-01D-A19M-08.2_gdc_realn.bam be34074e6b850cf2a71af53fae26a8c6
C499.TCGA-BJ-A3PR-11A-11D-A21Z-08.2_gdc_realn.bam 3d9f2eb4466d48e9880331eee429c1be C499.TCGA-BJ-A3PR-10A-01D-A21Z-08.2_gdc_realn.bam 660c267d75bd8c32550bfb9c57536629
C499.TCGA-BJ-A3PU-11A-11D-A21Z-08.2_gdc_realn.bam 94e2a9b0b9d1afc64692fe53242b0e7f C499.TCGA-BJ-A3PU-10A-01D-A21Z-08.2_gdc_realn.bam ee9d11e44e22908cacd81c4da1ca1407
C499.TCGA-BJ-A45D-11A-11D-A23U-08.3_gdc_realn.bam 8a4ef375f1e8108fea2696ea2aca36a6 C499.TCGA-BJ-A45D-10A-01D-A23U-08.3_gdc_realn.bam a0da927af7c9f140d97f700bc26530e9
C499.TCGA-BJ-A45E-11A-11D-A23U-08.3_gdc_realn.bam 62bca0c70bf595373cac382e46180d17 C499.TCGA-BJ-A45E-10A-01D-A23U-08.3_gdc_realn.bam 6b5ca0b03bf9cfe4afe6dabc4b1e78fa
C499.TCGA-BJ-A45F-11A-21D-A23U-08.3_gdc_realn.bam 2e191ded16d8d865876f0459f97f936d C499.TCGA-BJ-A45F-10A-01D-A23U-08.4_gdc_realn.bam 82390b351943c70747ab848640fc4343
C499.TCGA-BJ-A45G-11A-11D-A23U-08.4_gdc_realn.bam 39e127c7f603ccab2465286bf68e1017 C499.TCGA-BJ-A45G-10A-01D-A23U-08.4_gdc_realn.bam a920b20051f0fd3fa868ea158b245877
C499.TCGA-BJ-A45I-11A-11D-A23U-08.3_gdc_realn.bam 16e73ef7a30bc21dd0f27cf48a4cf0b3 C499.TCGA-BJ-A45I-10A-01D-A23U-08.2_gdc_realn.bam c991b0621416b997fe1a40820790c3b1
C499.TCGA-BJ-A45J-11A-11D-A23U-08.3_gdc_realn.bam 621ae8881e896f23996ac7dda6883073 C499.TCGA-BJ-A45J-10A-01D-A23U-08.3_gdc_realn.bam 69924086b133da7f0fb29168758f8a8f
C499.TCGA-BJ-A45K-11A-11D-A23U-08.3_gdc_realn.bam a329875632a0b5e7f0690ebd83e406a3 C499.TCGA-BJ-A45K-10A-01D-A23U-08.3_gdc_realn.bam 0a2ffa2260482c83d69b807dde7db399
C499.TCGA-BJ-A4O8-11A-11D-A25A-08.2_gdc_realn.bam 51682e91ce331a009a62ac1e44477aca C499.TCGA-BJ-A4O8-10A-01D-A25A-08.5_gdc_realn.bam dd3cc07fdc8a0348e352ace7d9e1faea
C499.TCGA-BJ-A4O9-11A-11D-A25A-08.6_gdc_realn.bam 86bda5549c1c8a6d7da679d0edd07ef9 C499.TCGA-BJ-A4O9-10A-01D-A25A-08.5_gdc_realn.bam c05f83d17d398126848f8d2b6ecfefaf
C499.TCGA-DO-A1JZ-11A-11D-A13W-08.3_gdc_realn.bam 02dcd73b9b8e8e270a2bf389e5c99d13 C499.TCGA-DO-A1JZ-10A-01D-A13W-08.5_gdc_realn.bam 398c019bfd17748626404b3dafec03d2
C499.TCGA-E8-A2JQ-11A-11D-A19J-08.1_gdc_realn.bam ca0a9bc3acf95b0ea08dfe28f3d6b807 C499.TCGA-E8-A2JQ-10A-01D-A19M-08.1_gdc_realn.bam db8cd9218049ded0750b5af7d11f7bb4
C499.TCGA-EM-A1CS-11A-21D-A13W-08.5_gdc_realn.bam ff8ada6c3fca30f5beaa31145369f9d0 C499.TCGA-EM-A1CS-10A-01D-A13W-08.5_gdc_realn.bam 367667d2812584d3a352755eb1cd5975
C499.TCGA-EM-A1CT-11A-11D-A13W-08.3_gdc_realn.bam b5c3785df89d788def2f2e4b7f3bc5c9 C499.TCGA-EM-A1CT-10A-01D-A13W-08.3_gdc_realn.bam f22601109de62bec7649656b8caa7b21
C499.TCGA-EM-A1CU-11A-11D-A13W-08.3_gdc_realn.bam df0cba50e4c95856d1f266d0ce62066b C499.TCGA-EM-A1CU-10A-02D-A13W-08.3_gdc_realn.bam 2b4aa1c58620da5b48068c8efd39e371
C499.TCGA-EM-A1CV-11A-11D-A13W-08.4_gdc_realn.bam c677c61a8631760173a48c0c8e519516 C499.TCGA-EM-A1CV-10A-01D-A13W-08.4_gdc_realn.bam 1f3c8834c3ec3fb9abaf11935a9f9263
C499.TCGA-EM-A1CW-11A-12D-A13W-08.3_gdc_realn.bam 5cc1a30f2c9ba1419da78348a2c36cb3 C499.TCGA-EM-A1CW-10A-01D-A13W-08.3_gdc_realn.bam 33f2c2ed6d221235d41bd5ecfc4efedf
C499.TCGA-FY-A3TY-11A-12D-A22Z-08.7_gdc_realn.bam e1d46662db9b35127c00bcb961b6095a C499.TCGA-FY-A3TY-10A-01D-A22Z-08.8_gdc_realn.bam 43874e08e6033dbc5e0db38d444e9d87
C499.TCGA-GE-A2C6-11A-11D-A16O-08.4_gdc_realn.bam 44077979ce6065f8bc2433e28325a58e C499.TCGA-GE-A2C6-10A-01D-A16O-08.2_gdc_realn.bam 12239986f8b93b9d34e84a49b24abcf7
C499.TCGA-H2-A2K9-11A-11D-A17V-08.1_gdc_realn.bam 79afae99b3ca940e03dc444446c3c499 C499.TCGA-H2-A2K9-10A-01D-A17V-08.1_gdc_realn.bam 22fededaedf9cc1e8607849feea6e3fb
C499.TCGA-H2-A3RI-11A-11D-A21Z-08.2_gdc_realn.bam 59cd8896726faa8f59014f35d822d717 C499.TCGA-H2-A3RI-10A-01D-A21Z-08.2_gdc_realn.bam ec5f326856aa05fd5b757047493287a9
C500.TCGA-BL-A13I-11A-11D-A13W-08.5_gdc_realn.bam 4d3906ae17592ddff1354b739bf5c84f C500.TCGA-BL-A13I-10A-01D-A271-08.2_gdc_realn.bam d722bcf1cd66e43347a895be79bea6bf
C500.TCGA-BL-A13J-11A-13D-A10S-08.7_gdc_realn.bam cd28b939257c364484d9dc086aa225ea C500.TCGA-BL-A13J-10A-01D-A271-08.2_gdc_realn.bam 13a867113b022bb986f4b70be8afe72b
C500.TCGA-BL-A5ZZ-11A-11D-A30H-08.1_gdc_realn.bam 255a12c2d7aeb0417bb1a945b5473039 C500.TCGA-BL-A5ZZ-10A-01D-A30H-08.1_gdc_realn.bam f4f4212a49da0538c6c6182744ba8275
C500.TCGA-BT-A2LB-11A-11D-A18F-08.1_gdc_realn.bam 322b96c36e126b15bdd322ecac7d1c4e C500.TCGA-BT-A2LB-10A-01D-A18F-08.1_gdc_realn.bam 648ab0ea02c60f3068d409b71a4d9a7f
C500.TCGA-CU-A0YR-11A-13D-A10S-08.4_gdc_realn.bam 6d50352063146c3ab033c881b9d4db43 C500.TCGA-CU-A0YR-10A-01D-A10S-08.5_gdc_realn.bam a60651d6e7b36be74663bd451ff04946
C500.TCGA-GC-A3BM-11A-11D-A22Z-08.9_gdc_realn.bam a00dddbd11954ece958ad7e9899bb882 C500.TCGA-GC-A3BM-10A-01D-A22Z-08.9_gdc_realn.bam b450cdf1b834d650e2c64c04ddd42849
C500.TCGA-GC-A3WC-11A-11D-A22Z-08.9_gdc_realn.bam 3ebe023b45f1e3c415e9f150338d2bee C500.TCGA-GC-A3WC-10A-01D-A22Z-08.9_gdc_realn.bam 6e99995e40f3b3278f6437673013f25c
C500.TCGA-GC-A6I3-11A-11D-A31L-08.2_gdc_realn.bam 14ab3bed3af60193696a96c0b928d5c9 C500.TCGA-GC-A6I3-10A-01D-A31J-08.2_gdc_realn.bam 5f8e1a9c9fdb7bebc3ee6fb0a303e795
C500.TCGA-GD-A2C5-11A-11D-A17V-08.1_gdc_realn.bam 4687f7c04de71169357c030d39522e4d C500.TCGA-GD-A2C5-10A-01D-A17V-08.1_gdc_realn.bam 61c01c2bb74bf9c5a6883a804d83e729
C500.TCGA-GD-A3OP-11A-11D-A21Z-08.1_gdc_realn.bam a50a8cccd5c8cffee5f54995aa14fe41 C500.TCGA-GD-A3OP-10A-01D-A21Z-08.1_gdc_realn.bam b5b1e9d3b158c46bf1796e3754675080
C500.TCGA-GD-A3OQ-11A-21D-A21Z-08.1_gdc_realn.bam dbf629019a816497d810e2b6c75c093a C500.TCGA-GD-A3OQ-10A-01D-A21Z-08.1_gdc_realn.bam 989ea21a5fdf951c50faea4025a74eca
C500.TCGA-K4-A3WV-11A-21D-A22Z-08.9_gdc_realn.bam c369c6a7544e26009ab7df170b292448 C500.TCGA-K4-A3WV-10A-01D-A22Z-08.9_gdc_realn.bam 8c1147b51214eb84182c9955e6a5c966
C500.TCGA-K4-A54R-11A-11D-A26M-08.4_gdc_realn.bam ebab53259b49011910de6e7abf46446a C500.TCGA-K4-A54R-10A-01D-A26K-08.4_gdc_realn.bam 26bc55f49cfd8d7b271dbedfb43553de
C500.TCGA-K4-A5RH-11A-11D-A30H-08.1_gdc_realn.bam a455c34921750efdc88e6975ef42f71b C500.TCGA-K4-A5RH-10A-01D-A30H-08.1_gdc_realn.bam 8a7e146c301635eb771c3d92632464ad
C500.TCGA-K4-A5RI-11A-11D-A289-08.4_gdc_realn.bam 47f9eeb6f267a8c1e3a1b61ab1a1e150 C500.TCGA-K4-A5RI-10A-01D-A289-08.4_gdc_realn.bam fb1daa15eb3c76e9f5e0aaa52d4ed60c
C500.TCGA-K4-A6FZ-11A-12D-A31L-08.2_gdc_realn.bam f5c70abc3816624d95089dcd13e8f43d C500.TCGA-K4-A6FZ-10A-01D-A31J-08.2_gdc_realn.bam 58d46fde96c5b417250683adf7aeb9b5
C500.TCGA-K4-A83P-11A-21D-A34U-08.1_gdc_realn.bam 5abdf6c20a893c9e5764352a4d7cce1c C500.TCGA-K4-A83P-10A-01D-A34X-08.1_gdc_realn.bam f8f555e16d244f6f0720fb1b0dacdf83
C508.TCGA-34-7107-11A-01D-1945-08.2_gdc_realn.bam 70356f0424bb24157c2fa9ed08a75054 C508.TCGA-34-7107-10A-01D-1945-08.2_gdc_realn.bam b1115fd8187d63e510b3be8dd29eceb8
C508.TCGA-43-5668-11A-01D-1632-08.1_gdc_realn.bam e5a4aae869d07e64c1c8971adc6c435b C508.TCGA-43-5668-10A-01D-1632-08.1_gdc_realn.bam 1007192a1043b730173691f88e699f9b
C508.TCGA-43-6143-11A-01D-1817-08.2_gdc_realn.bam 28f1a39523433cc949b773c39dc13b7b C508.TCGA-43-6143-10A-01D-1817-08.2_gdc_realn.bam 06dd8be872729b64a5885e4c415890a6
C508.TCGA-43-6647-11A-01D-1817-08.2_gdc_realn.bam 63f9e27246d3692a66b0bd486433544d C508.TCGA-43-6647-10A-01D-1817-08.2_gdc_realn.bam 8bbbd7d8dbf63154a345cd61196fcd5f
C508.TCGA-43-6770-11A-01D-1817-08.2_gdc_realn.bam c7653e07f2d7a9a5df3e31e73b40cd76 C508.TCGA-43-6770-10A-01D-1817-08.2_gdc_realn.bam 1203b84ccb9bcf197dead3e3a68e21bc
C508.TCGA-43-6771-11A-01D-1817-08.2_gdc_realn.bam a2bd874af2b704da0716ec5a38d797d8 C508.TCGA-43-6771-10A-01D-1817-08.2_gdc_realn.bam f1cf52d51e6488ad334a35dd41403872
C508.TCGA-43-6773-11A-01D-1945-08.2_gdc_realn.bam 7222d0305491b6f9f1b69bf5754b88e2 C508.TCGA-43-6773-10A-01D-1945-08.2_gdc_realn.bam b4fa5da0395ac1ec0a1bd12c6375bb85
C508.TCGA-43-8118-11A-01D-2395-08.1_gdc_realn.bam 4856726f6b8fe2839cc59c5115ed76f7 C508.TCGA-43-8118-10A-01D-2395-08.1_gdc_realn.bam 5aa3b43af49e41b6c077a936fb8d62ae
C508.TCGA-56-8504-11A-01D-2395-08.1_gdc_realn.bam 10961286d22343fb62c9de7f174637f4 C508.TCGA-56-8504-10A-01D-2395-08.1_gdc_realn.bam 53f27a9cb84d5b251a251a200eee4eff
C508.TCGA-56-8622-11A-01D-2395-08.1_gdc_realn.bam ee2b0bdf76108985bf85945ae4807f44 C508.TCGA-56-8622-10A-01D-2395-08.1_gdc_realn.bam e05dd876bda4428c36a5383349b71667
C508.TCGA-56-8623-11A-01D-2395-08.1_gdc_realn.bam 7957c9cb121a221ab8151b89ddfefe7e C508.TCGA-56-8623-10A-01D-2395-08.1_gdc_realn.bam bdab9caacd81e54bcc03a1144caf76a9
C508.TCGA-56-8624-11A-01D-2395-08.1_gdc_realn.bam 1c5d62b7c77fa959c969d37cc259a3f0 C508.TCGA-56-8624-10A-01D-2395-08.1_gdc_realn.bam 58c5ea2ff2b7f5e630a5a10d9d75afc2
C508.TCGA-56-8625-11A-01D-2395-08.1_gdc_realn.bam 7d99098d12905eb6e30044ae8f6b79bc C508.TCGA-56-8625-10A-01D-2395-08.1_gdc_realn.bam 0ca7e8c4f8c6b6738ca5092d3e6e0350
C508.TCGA-56-8628-11A-01D-2395-08.1_gdc_realn.bam 07b576d026dff1e22eaadcb140b1c04d C508.TCGA-56-8628-10A-01D-2395-08.1_gdc_realn.bam e41cb6d28a5fe548008d38280aae3e62
C508.TCGA-56-8629-11A-01D-2395-08.1_gdc_realn.bam 7b2e065e0302188e51c4a5c688ec3cd5 C508.TCGA-56-8629-10A-01D-2395-08.1_gdc_realn.bam f57712461329d156647f74de7c56a75c
C508.TCGA-77-6842-11A-01D-1945-08.5_gdc_realn.bam 65e7cc48dae72f5c2b3131bd837d85fd C508.TCGA-77-6842-10A-01D-1945-08.5_gdc_realn.bam f53edb399e995327746c311ced91c9ee
C508.TCGA-77-6843-11A-01D-1945-08.5_gdc_realn.bam 27dc8ace66b3a52b3b01cbc1a17b3209 C508.TCGA-77-6843-10A-01D-1945-08.5_gdc_realn.bam fd67d4aff82220301f178488c0d84c76
C508.TCGA-77-6844-11A-01D-1945-08.5_gdc_realn.bam 69abf48917793348cc8c088fc3153875 C508.TCGA-77-6844-10A-01D-1945-08.5_gdc_realn.bam 81db47ac368427b7c44bbd9ca4ea49a4
C508.TCGA-77-6845-11A-01D-1945-08.2_gdc_realn.bam c42771e15d5cdd386e8d70db457f48ad C508.TCGA-77-6845-10A-01D-1945-08.2_gdc_realn.bam 0eb25da5eb805ef4d15833966948bb73
C508.TCGA-90-6837-11A-01D-1945-08.2_gdc_realn.bam 8b050b52401cb4aafbe68a0868bf3ac1 C508.TCGA-90-6837-10A-01D-1945-08.2_gdc_realn.bam 1e46f01aa903fed20cdae875281ce942
C509.TCGA-44-5643-11A-01D-1625-08.1_gdc_realn.bam 3b1d8e5574082241372cf6b1295bb4b2 C509.TCGA-44-5643-10A-01D-1625-08.1_gdc_realn.bam bf0b0e72eefb7f59da7c33aed54056cc
C509.TCGA-44-5644-11A-01D-2036-08.6_gdc_realn.bam 4045ddd9b2e9c34a5fbee07adf6fa0fc C509.TCGA-44-5644-10A-01D-2036-08.6_gdc_realn.bam 3c6d7d9e7ebef5ee5553d755bfdb13d7
C509.TCGA-44-5645-11A-01D-1625-08.7_gdc_realn.bam 1ccc2de18ff85c2e85996787f81c8397 C509.TCGA-44-5645-10A-01D-A271-08.5_gdc_realn.bam a563c6f2d66d3ae56579a72bfa922c60
C509.TCGA-44-6774-11A-01D-1855-08.2_gdc_realn.bam 433575dd07d47ffa7ff4b5785a1204cf C509.TCGA-44-6774-10A-01D-1855-08.2_gdc_realn.bam 604a809b3ffbbe5db208de55b714e394
C509.TCGA-44-6775-11A-01D-1855-08.7_gdc_realn.bam 4d8f15d11f32425c87da8125db69cf1f C509.TCGA-44-6775-10A-01D-A271-08.5_gdc_realn.bam 1e29055f7b0baac03cd2186d987ccc27
C509.TCGA-44-6776-11A-01D-1855-08.2_gdc_realn.bam 3541d7943b31f14c5249d0707b6b7bbf C509.TCGA-44-6776-10A-01D-1855-08.2_gdc_realn.bam 5f7de845312d9f78be4e7b8eb5370912
C509.TCGA-44-6777-11A-01D-1855-08.2_gdc_realn.bam 1bbd1fd3e108af7ff66a8bcc236ec085 C509.TCGA-44-6777-10A-01D-1855-08.2_gdc_realn.bam 7cd4262afebc89a49ec5a0d715644a42
C509.TCGA-44-6778-11A-01D-1855-08.2_gdc_realn.bam 6c3e5bae121b3c8f0522c4f74a5da2c7 C509.TCGA-44-6778-10A-01D-1855-08.2_gdc_realn.bam 8365acd74dadb58bbd0a5c8715e9b6c0
C509.TCGA-44-7659-11A-01D-2063-08.2_gdc_realn.bam 76b3d1e2c970a59a5948954293a58670 C509.TCGA-44-7659-10A-01D-2063-08.1_gdc_realn.bam 0539f6139d2c0d8487445dba729cfae0
C509.TCGA-44-7660-11A-01D-2063-08.2_gdc_realn.bam 4ea704f2b69a25500141678ffafba91b C509.TCGA-44-7660-10A-01D-2063-08.2_gdc_realn.bam a92a160898e00787efefe5d7b6420c17
C509.TCGA-44-7661-11A-01D-2063-08.2_gdc_realn.bam e9e396f6ec6aecdadba769418697c2da C509.TCGA-44-7661-10A-01D-2063-08.2_gdc_realn.bam 2c25182fe7beda63e0d7c1586f81925d
C509.TCGA-44-7662-11A-01D-2063-08.2_gdc_realn.bam 49bca9728e2cbae7675cd5a807439549 C509.TCGA-44-7662-10A-01D-2063-08.1_gdc_realn.bam 1014ae51f4bf0bd75a57af39960e9386
C509.TCGA-44-7667-11A-01D-2063-08.2_gdc_realn.bam 4bd0e41c18d51106ef08a225e25525cd C509.TCGA-44-7667-10A-01D-2063-08.2_gdc_realn.bam 2d74aa49618a29330cd7e1c75d9d020a
C509.TCGA-44-7669-11A-01D-2063-08.2_gdc_realn.bam 29c7fea6fead91752d0bf8b13ab67a04 C509.TCGA-44-7669-10A-01D-2063-08.2_gdc_realn.bam 50cd1989492182553135beef305da479
C509.TCGA-44-7670-11A-01D-2063-08.2_gdc_realn.bam ab94a9cfab9db337ebe745cafce41c59 C509.TCGA-44-7670-10A-01D-2063-08.1_gdc_realn.bam 520f134db0a66b234e09f15df88df785
C509.TCGA-44-7671-11A-01D-2063-08.3_gdc_realn.bam 752b058cc1f5915b3b39ea3d03167532 C509.TCGA-44-7671-10A-01D-2063-08.1_gdc_realn.bam f224f177467bfe6981a545fe16de9ef8
C509.TCGA-44-7672-11A-01D-2063-08.2_gdc_realn.bam afa7bdc95cf21c16b725e8b12c3f52c7 C509.TCGA-44-7672-10A-01D-2063-08.1_gdc_realn.bam 1fdb7fa5bf9b7936f5858e349dd686fb
C509.TCGA-55-7281-11A-01D-2036-08.2_gdc_realn.bam 8cde713eac5598af3de572c51abc673d C509.TCGA-55-7281-10A-01D-2036-08.1_gdc_realn.bam a0db3a1d27212d8f6972f3b5a30dd7b8
C509.TCGA-55-7283-11A-01D-2036-08.2_gdc_realn.bam 96474439b93db3e919bfa37945552813 C509.TCGA-55-7283-10A-01D-2036-08.1_gdc_realn.bam a446a9c8e175ecbb3bedcc2209db20df
C509.TCGA-55-7570-11A-01D-2036-08.2_gdc_realn.bam 5a1693e5b7832b6135ab3e5d5585b7f2 C509.TCGA-55-7570-10A-01D-2036-08.2_gdc_realn.bam 95b7f26c25ef0bf710f7c12de6dddbdd
C509.TCGA-55-7574-11A-01D-2036-08.2_gdc_realn.bam 5ce1ff27c581420b27b02b124fc5e3ad C509.TCGA-55-7574-10A-01D-2036-08.1_gdc_realn.bam e23cd8b04b2a6a1ee71f1bac498128c8
C509.TCGA-55-7576-11A-01D-2063-08.2_gdc_realn.bam 25538efe5e9d302fc09c1087e6188b89 C509.TCGA-55-7576-10A-01D-2063-08.1_gdc_realn.bam 6da2c3011066dc13c992c957bf6b09ad
C509.TCGA-86-7711-11A-01D-2063-08.2_gdc_realn.bam 7514f7ef583e6af8f4fe72ecef9f831f C509.TCGA-86-7711-10A-01D-2063-08.2_gdc_realn.bam e0f8146f715685b8f8c20039d313e295
C509.TCGA-86-7713-11A-01D-2063-08.2_gdc_realn.bam 5733bd749c351f4a112c6e9d9dd974f8 C509.TCGA-86-7713-10A-01D-2063-08.1_gdc_realn.bam 5f580893d51cb10cb612a6e7da538a1e
C509.TCGA-91-6828-11A-01D-1855-08.2_gdc_realn.bam 2a26632ec8c7b5660764812a7dbcf01e C509.TCGA-91-6828-10A-01D-1855-08.2_gdc_realn.bam c8c345e70c07fc5c17431962674912fd
C509.TCGA-93-7348-11A-01D-2036-08.2_gdc_realn.bam caeee340a6550bc97f54e661a2b01063 C509.TCGA-93-7348-10A-01D-2036-08.1_gdc_realn.bam cc23f7cb428b495b9dadb35ff6815408
C529.TCGA-EJ-7115-11A-01D-2114-08.2_gdc_realn.bam 475d925491951283624d0fa0a905b5b7 C529.TCGA-EJ-7115-10A-01D-2114-08.2_gdc_realn.bam 96af5c4940a631df42a41745b61693d5
C529.TCGA-EJ-7123-11A-01D-1961-08.2_gdc_realn.bam e7191636ccfd020ad1bcc3d7bf9f2e02 C529.TCGA-EJ-7123-10A-01D-1961-08.2_gdc_realn.bam df2179dd0987922b97b217d473cd40c7
C529.TCGA-EJ-7125-11A-01D-1961-08.2_gdc_realn.bam c5e2289cb3874df529ab78648292af0d C529.TCGA-EJ-7125-10A-01D-1961-08.2_gdc_realn.bam a2c79726ba6cc3f85dc037232a754b4d
C529.TCGA-EJ-7314-11A-01D-2114-08.2_gdc_realn.bam 81fd07ed9b4a9d1d40a9c0c4a0d56b7f C529.TCGA-EJ-7314-10A-01D-2114-08.2_gdc_realn.bam 7f08e7eb4ab227913c7a7d2f39743d08
C529.TCGA-EJ-7315-11A-01D-2114-08.1_gdc_realn.bam c2c2f8fc6b2e637c7ed289ce06774ada C529.TCGA-EJ-7315-10A-01D-2114-08.1_gdc_realn.bam 05aae68f91f25f694bd730bb309ecd82
C529.TCGA-EJ-7317-11A-01D-2114-08.1_gdc_realn.bam 159db7e6dd457a822870ad22a696c258 C529.TCGA-EJ-7317-10A-01D-2114-08.1_gdc_realn.bam f793b4929e06fad395d16b4e8b214180
C529.TCGA-EJ-7327-11A-01D-2114-08.2_gdc_realn.bam 9442432b3e2acdb837a45282c1ae629d C529.TCGA-EJ-7327-10A-01D-2114-08.2_gdc_realn.bam f3d728488b605cdd2caf0835b0b90d1a
C529.TCGA-EJ-7328-11A-01D-2114-08.1_gdc_realn.bam edae8589696d77d7a38c85fcfd9a3442 C529.TCGA-EJ-7328-10A-01D-2114-08.1_gdc_realn.bam edf11ac58bd61730a8483f2f0070122b
C529.TCGA-EJ-7330-11A-01D-2114-08.2_gdc_realn.bam 9c4a28d4fa9d703e4d1f9dd6961d64ee C529.TCGA-EJ-7330-10A-01D-2114-08.1_gdc_realn.bam f5d07ac353fda92927b95868ee821872
C529.TCGA-EJ-7331-11A-01D-2114-08.1_gdc_realn.bam 9f31d8b014297487d1252d404313779b C529.TCGA-EJ-7331-10A-01D-2114-08.1_gdc_realn.bam e9050ada73e6c689c0522e63745fdc9d
C529.TCGA-EJ-7781-11A-01D-2114-08.2_gdc_realn.bam 086282eb30e5b92a4cc51551820e582b C529.TCGA-EJ-7781-10A-01D-2114-08.2_gdc_realn.bam 99b7e822f6369d66f8b3c00a7f72f211
C529.TCGA-EJ-7782-11A-01D-2114-08.5_gdc_realn.bam 06f07f1306f2fb00791ab82c50f17549 C529.TCGA-EJ-7782-10A-01D-2114-08.5_gdc_realn.bam 668311891fde2b2a049a778fe8a10478
C529.TCGA-EJ-7783-11A-01D-2114-08.1_gdc_realn.bam a34c6db291e1897f7f158f45517f7239 C529.TCGA-EJ-7783-10A-01D-2114-08.1_gdc_realn.bam 3cf953bd99f46bc63b4437f0514415e5
C529.TCGA-EJ-7784-11A-01D-2114-08.1_gdc_realn.bam a95d140a317a4fecc0d8e1fdae18137e C529.TCGA-EJ-7784-10A-01D-2114-08.1_gdc_realn.bam a951dc13fccfe3dde60f106174adeee3
C529.TCGA-EJ-7785-11A-01D-2114-08.2_gdc_realn.bam b8bf066c6e5e69fd2310bce598dbf51d C529.TCGA-EJ-7785-10A-01D-2114-08.2_gdc_realn.bam 26e01f68358b20ef820c9d37ff68a97c
C529.TCGA-EJ-7786-11A-01D-2114-08.1_gdc_realn.bam c4cef69aaf7971b8f989a4de86283c3e C529.TCGA-EJ-7786-10A-01D-2114-08.1_gdc_realn.bam ca784fc523fe4911fb6e79663f2739f8
C529.TCGA-EJ-7789-11A-01D-2114-08.1_gdc_realn.bam 8a0c894bbaf25ea99a786e6013fb0c7c C529.TCGA-EJ-7789-10A-01D-2114-08.1_gdc_realn.bam ab4ba33c86f3ab0f4e56b7af8d3a1ccc
C529.TCGA-EJ-7792-11A-01D-2114-08.2_gdc_realn.bam b435313b1b01a92d104fa58f964bb534 C529.TCGA-EJ-7792-10A-01D-2115-08.2_gdc_realn.bam c8a4ef2362cd784196d5527dcf31f721
C529.TCGA-EJ-7794-11A-01D-2114-08.1_gdc_realn.bam ddc6cf73d3ea9dc3177c7d90e43b11fa C529.TCGA-EJ-7794-10A-01D-2115-08.1_gdc_realn.bam 933040efffb668f40a8068992b62026f
C529.TCGA-EJ-8468-11A-01D-2395-08.1_gdc_realn.bam 49f8ca70c266a4f74b4dcf5e344ce565 C529.TCGA-EJ-8468-10A-01D-2395-08.1_gdc_realn.bam 677ba36e65393ee5a039ab91cc8b6476
C529.TCGA-EJ-8472-11A-01D-2395-08.2_gdc_realn.bam c5b8247bc6b9f456c7e252384c830f04 C529.TCGA-EJ-8472-10A-01D-2395-08.2_gdc_realn.bam aabb09fa423494a6cf9d0abe8be5ea4e
C529.TCGA-EJ-8474-11A-01D-2395-08.2_gdc_realn.bam f6f89dde990942b96b6bc3a84864d6c2 C529.TCGA-EJ-8474-10A-01D-2395-08.2_gdc_realn.bam 468319829ea5a68bd7f17492fbcedbad
C529.TCGA-G9-6332-11A-01D-1786-08.4_gdc_realn.bam 0001e044aae9ce17bc8bd2be7a22e4c0 C529.TCGA-G9-6332-10A-01D-1786-08.4_gdc_realn.bam dfd1aec48983508845fbdc81f917c1ab
C529.TCGA-G9-6333-11A-01D-1961-08.2_gdc_realn.bam 4cb2c79dc0b20dffe3defd2d0c58844b C529.TCGA-G9-6333-10A-01D-1961-08.2_gdc_realn.bam 7c72269c3cac52b41e519b729bf00194
C529.TCGA-G9-6342-11A-02D-1961-08.2_gdc_realn.bam 0942cd6d62688980412176b8260abc53 C529.TCGA-G9-6342-10A-01D-1961-08.2_gdc_realn.bam 36031e47ffd9a0db6367b341fccf29d8
C529.TCGA-G9-6348-11A-01D-1786-08.3_gdc_realn.bam f8649f4d87b7b513b1f4eb24dc052a04 C529.TCGA-G9-6348-10A-01D-1786-08.3_gdc_realn.bam 7b9a014dbe36372d48466162681c7b82
C529.TCGA-G9-6351-11A-01D-1961-08.2_gdc_realn.bam be0cd7c3d3dd23954bc850bfac389574 C529.TCGA-G9-6351-10A-01D-1961-08.2_gdc_realn.bam d4253d2bfaac10a689394807ebf42432
C529.TCGA-G9-6353-11A-02D-1961-08.2_gdc_realn.bam aad745b01e7b7ebdec2580b76beb326f C529.TCGA-G9-6353-10A-01D-1961-08.2_gdc_realn.bam 26e605cd92ec56cf0e254eb1608b080d
C529.TCGA-G9-6356-11A-01D-1786-08.3_gdc_realn.bam 8060d8fbdd0231ac2a015ecdc8c35d9f C529.TCGA-G9-6356-10A-01D-1786-08.3_gdc_realn.bam f19e236257a72497b5ff601b18b4bef4
C529.TCGA-G9-6362-11A-01D-1786-08.3_gdc_realn.bam 8c8e534ce98c75f60ea12fe193297607 C529.TCGA-G9-6362-10A-01D-1786-08.5_gdc_realn.bam a0c20e4c1e0446c2806b18148858af65
C529.TCGA-G9-6363-11A-01D-1786-08.3_gdc_realn.bam a85de465f6eb087243312cfacf79ef68 C529.TCGA-G9-6363-10A-01D-1786-08.3_gdc_realn.bam a24a2c7c6532c172b261a88bced140a0
C529.TCGA-G9-6364-11A-01D-1786-08.3_gdc_realn.bam 028d2e3315620dd26df58a4a2ba36145 C529.TCGA-G9-6364-10A-01D-1786-08.3_gdc_realn.bam 8f16b39a35d2ab8cf127063939996dd0
C529.TCGA-G9-6365-11A-01D-1786-08.3_gdc_realn.bam 071dc3e8a774ce9da073b14783153da7 C529.TCGA-G9-6365-10A-01D-1786-08.3_gdc_realn.bam bdfbb3771c38d1749bc6c8395fe44c94
C529.TCGA-G9-6367-11A-01D-1786-08.3_gdc_realn.bam 0d43303a6367f21bfa19af94dd1b0803 C529.TCGA-G9-6367-10A-01D-1786-08.3_gdc_realn.bam b9e219cfeddcfc6ec83e99fefc2a118f
C529.TCGA-G9-6373-11A-01D-1786-08.9_gdc_realn.bam ecb7f31ad649927260b97f30363aad01 C529.TCGA-G9-6373-10A-01D-1786-08.7_gdc_realn.bam ecb8556ecc3694ad1ba0d445cf955223
C529.TCGA-G9-6384-11A-01D-1786-08.3_gdc_realn.bam 667c5542d3fcebda9e953db330afafde C529.TCGA-G9-6384-10A-01D-1786-08.3_gdc_realn.bam f29b88d419c4e5b2e1cde12033b6cf73
C529.TCGA-G9-6385-11A-01D-1786-08.3_gdc_realn.bam 783584436091ab3ac405c2d137a65ddc C529.TCGA-G9-6385-10A-01D-1786-08.3_gdc_realn.bam c9e925101229c87d91c629c783f6222e
C529.TCGA-G9-6494-11A-01D-1786-08.3_gdc_realn.bam ff6fb0635ad9e6a0d418e7cb68b00946 C529.TCGA-G9-6494-10A-01D-1786-08.3_gdc_realn.bam fb6340f04c21c29ab39ffd1f75a56803
C529.TCGA-G9-6496-11A-01D-1786-08.3_gdc_realn.bam edf593f196d31c9dc38f624e5b3b75ff C529.TCGA-G9-6496-10A-01D-1786-08.3_gdc_realn.bam 6ede0cf21ddf43a88339a5d8379c9d04
C529.TCGA-G9-6499-11A-02D-1961-08.2_gdc_realn.bam e9895d89d817bc682abf3b43d10dc37b C529.TCGA-G9-6499-10A-01D-1961-08.2_gdc_realn.bam 19a80734f050064eac250c771d1cc6c9
C529.TCGA-HC-7738-11A-01D-2114-08.2_gdc_realn.bam 4b559c2f814277283f1aea7b8165185b C529.TCGA-HC-7738-10A-01D-2115-08.2_gdc_realn.bam 7887ab261525cf0c9a4e709bf86c7423
C529.TCGA-HC-7740-11A-01D-2114-08.2_gdc_realn.bam 076ec2df8dce51d0fbdae01683a9051f C529.TCGA-HC-7740-10A-01D-2115-08.2_gdc_realn.bam c4fd1cf8d67b792be5af913263554839
C529.TCGA-HC-7742-11A-01D-2114-08.1_gdc_realn.bam 8e76382db59530b79925988d24789c7b C529.TCGA-HC-7742-10A-01D-2115-08.1_gdc_realn.bam 95746cc7b1d5257b4c0934b4ec0310f8
C529.TCGA-HC-7745-11A-01D-2114-08.1_gdc_realn.bam 34456364a9634d4ea3e0ae6a77f1b738 C529.TCGA-HC-7745-10A-01D-2115-08.1_gdc_realn.bam ce1b7c31226d799bd8625e50f5024009
C529.TCGA-HC-7747-11A-01D-2114-08.1_gdc_realn.bam 418e8c5b21f220d742dd55d526cd5f81 C529.TCGA-HC-7747-10A-01D-2115-08.1_gdc_realn.bam c863c8cd6866da11ffb8db11c354315b
C529.TCGA-HC-7752-11A-01D-2114-08.1_gdc_realn.bam d153c7cb0c02fe4c93dd13c3d7b68d28 C529.TCGA-HC-7752-10A-01D-2115-08.1_gdc_realn.bam efaf0df346817c70ef9fbbc0db18479d
C529.TCGA-HC-7819-11A-01D-2114-08.1_gdc_realn.bam 757ec29a9e4d6fa72e5fdc09ded215af C529.TCGA-HC-7819-10A-01D-2115-08.1_gdc_realn.bam 7ac28eb57f198dfddb56ee3bfbfdc2b3
C529.TCGA-HC-7820-11A-01D-2114-08.1_gdc_realn.bam 49eafa534b7fa05435e4cb97cf42e973 C529.TCGA-HC-7820-10A-01D-2115-08.1_gdc_realn.bam 1cec444c430e6512fb88959476c9a027
C546.TCGA-H6-8124-11A-01D-2396-08.8_gdc_realn.bam 8e429e60e03b5b8fe90d301b61870924 C546.TCGA-H6-8124-10A-01D-2396-08.8_gdc_realn.bam 3a11110b9559988f428bfec3b68f2767
C546.TCGA-H6-A45N-11A-12D-A26I-08.6_gdc_realn.bam e00568edf2915a1270260eb028886eb6 C546.TCGA-H6-A45N-10A-01D-A26I-08.6_gdc_realn.bam 2bab371cb635ae334525a9a10495b5b4
C546.TCGA-HV-A5A3-11A-11D-A26I-08.6_gdc_realn.bam 6b482e8962d618bf17ff6e0801b20a16 C546.TCGA-HV-A5A3-10A-01D-A26I-08.6_gdc_realn.bam 65948cb3581167520fe7a710b48ed4ee
C546.TCGA-L1-A7W4-11A-11D-A367-08.2_gdc_realn.bam 59890d297a348a1277065561f9b16d9a C546.TCGA-L1-A7W4-10A-01D-A367-08.2_gdc_realn.bam 37fd401b4189a94082a236ff27fea43f
C546.TCGA-YB-A89D-11A-11D-A36O-08.3_gdc_realn.bam d26c6344b985d1c315163308dadb8168 C546.TCGA-YB-A89D-10A-01D-A367-08.3_gdc_realn.bam 0a5790b87e55fe7306967133bd0d3e71
C662.TCGA-44-6144-11A-01D-1753-08.4_gdc_realn.bam 889788982f192122ede83d32e10936f8 C662.TCGA-44-6144-10A-01D-1753-08.4_gdc_realn.bam a4352615c977f9ae56b5afeae2780521
C662.TCGA-44-6145-11A-01D-1753-08.4_gdc_realn.bam 28ffb26e5d16ae2b1e1e2e303ff1ddf7 C662.TCGA-44-6145-10A-01D-1753-08.4_gdc_realn.bam b33208f10081b11fc1e7d29172068f3b
C662.TCGA-44-6146-11A-01D-1753-08.9_gdc_realn.bam 735bc69f26c5c621fc8edfa3bff24272 C662.TCGA-44-6146-10A-01D-A271-08.5_gdc_realn.bam e0454dacca8ac71a4c0cc2d0f8aadde7
C662.TCGA-44-6147-11A-01D-1753-08.9_gdc_realn.bam 0f5afa6b2a1e88654005a7a9a4807e85 C662.TCGA-44-6147-10A-01D-A271-08.5_gdc_realn.bam f0c1a7f366a6d07ad36213d8146549f8
C662.TCGA-44-6148-11A-01D-1753-08.4_gdc_realn.bam 143b6bf43839a2ccefd4e6d5c6ccbaab C662.TCGA-44-6148-10A-01D-1753-08.4_gdc_realn.bam 64f67bb3c17ad407a13657ac096bdd6b
C828.TCGA-FW-A3R5-11A-11D-A23B-08.2_gdc_realn.bam fb29e7f300400930ad66d6dbd705d4e4 C828.TCGA-FW-A3R5-10A-01D-A23B-08.2_gdc_realn.bam a71e21ea9372055c268809d0b0eb0046
C850.TCGA-A4-7732-11A-01D-2136-08.2_gdc_realn.bam 12753d1297ee84c6cd572f935707dc0c C850.TCGA-A4-7732-10A-01D-2136-08.2_gdc_realn.bam 9ffd0ebdb20f7252f2e5d1ece6863511
TARGET-50-CAAAAR-11A-01D_hg19_Illumina_gdc_realn.bam 744bcd5c2a5e98e010476189c21f0843 TARGET-50-CAAAAR-10A-01D_hg19_Illumina_gdc_realn.bam a53a24ba03584d44e5dddb346c8a48c8
TARGET-50-PAJMVC-11A-01D_hg19_Illumina_gdc_realn.bam 048c28f0472c6b33d6de6416888788d4 TARGET-50-PAJMVC-10A-01D_hg19_Illumina_gdc_realn.bam 81ae9af85e3c0d1d059bf8bb3a52d3e9
TARGET-50-PAKECR-11A-01D_hg19_Illumina_gdc_realn.bam 9899fa07910ffe0147852b7f6219c040 TARGET-50-PAKECR-10A-01D_hg19_Illumina_gdc_realn.bam 172e72961dfc56b616a5453a8831a1fd
TCGA-A3-A6NJ-11A-11D-A33K-10_Illumina_gdc_realn.bam 1d0f8eb1bcd3e675edf6b8e9eaf279e8 TCGA-A3-A6NJ-10A-01D-A33K-10_Illumina_gdc_realn.bam 3161c6a8736f164bfb50ee00f91b89b0
TCGA-A3-A6NL-11A-11D-A33K-10_Illumina_gdc_realn.bam b743dd1f924bc43ff0d99e1988293943 TCGA-A3-A6NL-10A-01D-A33K-10_Illumina_gdc_realn.bam 0ef714aa612d2fe2b6060c9eb43b89b2
TCGA-A4-A4ZT-11A-11D-A26P-10_Illumina_gdc_realn.bam 2cf43e99c7804152c2c44d0223cdb6a0 TCGA-A4-A4ZT-10A-01D-A26P-10_Illumina_gdc_realn.bam 593585e362fd350293b21a6dc82d8787
TCGA-A4-A57E-11A-11D-A26P-10_Illumina_gdc_realn.bam f4ef388746f2f2374cbf9c19cfae97a3 TCGA-A4-A57E-10A-01D-A26P-10_Illumina_gdc_realn.bam b636433a2b11e42d1cc8222e23c609fe
TCGA-A4-A5XZ-11A-11D-A31X-10_Illumina_gdc_realn.bam 2d9c3829265800fdbe73fe49984602c4 TCGA-A4-A5XZ-10A-01D-A31X-10_Illumina_gdc_realn.bam 919e8adb6fad87bc85146f171ed6b4b9
TCGA-A4-A6HP-11A-12D-A31X-10_Illumina_gdc_realn.bam f7438bf01db1b7a9f37fad02ec18146f TCGA-A4-A6HP-10A-01D-A31X-10_Illumina_gdc_realn.bam 3f261fc1d109f6a8a220506916a8ad0e
TCGA-A6-2671-11A-01D-1554-10_Illumina_gdc_realn.bam 603d07ab52556435bb6757d305062dbf TCGA-A6-2671-10A-01D-1408-10_hg19_Illumina_gdc_realn.bam df6a3acf69eb3559fbfcac08e27efa19
TCGA-A6-2674-11A-01D-1554-10_Illumina_gdc_realn.bam f9de186e22e39776d31020d26ea695e9 TCGA-A6-2674-10A-01D-A270-10_Illumina_gdc_realn.bam 91f0a13d098a2a63931dc59bf893ac20
TCGA-A6-2675-11A-01D-1719-10_Illumina_gdc_realn.bam b3594be8dde8e86c362c171daf97aa31 TCGA-A6-2675-10A-01D-1719-10_hg19_Illumina_gdc_realn.bam d399572d9d364c272af5b2ce41600075
TCGA-A6-2677-11A-01D-1554-10_Illumina_gdc_realn.bam f05034195da2db030b14acee7ccd6801 TCGA-A6-2677-10A-01D-A270-10_Illumina_gdc_realn.bam f96aa1856f3e423fe06318c58bc49406
TCGA-A6-2678-11A-01D-1554-10_Illumina_gdc_realn.bam c216f46800de3121b4e2faf6a720f2a4 TCGA-A6-2678-10A-01D-1953-10_gapfillers_Illumina_gdc_realn.bam d45490216d367fb997e5b43730794475
TCGA-A6-2679-11A-01D-1554-10_Illumina_gdc_realn.bam 5ba0c80bcf2e997de4deef343a3204d6 TCGA-A6-2679-10A-01D-2188-10_hg19_Illumina_gdc_realn.bam 307371d0ba68beb86fe47b828183a269
TCGA-A6-2680-11A-01D-1554-10_Illumina_gdc_realn.bam 7c3509fc4f4e9d95ae59506daa641530 TCGA-A6-2680-10A-01D-2188-10_Illumina_gdc_realn.bam a8e90217054e1b00761d8d9b1fa4697d
TCGA-A6-2681-11A-01D-1554-10_hg19_Illumina_gdc_realn.bam c216b26c88fee412ecb7b74e0be5a136 TCGA-A6-2681-10A-01D-2188-10_hg19_Illumina_gdc_realn.bam a3a1398c19eeec7c7aa401fe4df53a3e
TCGA-A6-2682-11A-01D-1554-10_Illumina_gdc_realn.bam 67e6be889a6c493746dba7dbc5bdf0da TCGA-A6-2682-10A-01D-2188-10_Illumina_gdc_realn.bam 95ab48319f71965389df9d085d6f03b6
TCGA-A6-2683-11A-01D-1554-10_Illumina_gdc_realn.bam 4e0e30eea7a10d2dada70dc71dbe5c34 TCGA-A6-2683-10A-01D-1953-10_gapfillers_Illumina_gdc_realn.bam 90166d2bd6e1563b54b8f89818975406
TCGA-A6-2684-11A-01D-1554-10_Illumina_gdc_realn.bam 1fbf6ede7dabdecfaddc205dbca85b6f TCGA-A6-2684-10A-01D-A270-10_Illumina_gdc_realn.bam da992732b0857bafe6daaff3f840631e
TCGA-A6-2685-11A-01D-1554-10_Illumina_gdc_realn.bam 32facd71f199a1f4d0214b6b7d3b9897 TCGA-A6-2685-10A-01D-2188-10_Illumina_gdc_realn.bam b0f2c522f459fe99804b000a70aa5538
TCGA-A6-2686-11A-01D-1554-10_Illumina_gdc_realn.bam afe0a189b37e8ea3331450285c044598 TCGA-A6-2686-10A-01D-2188-10_Illumina_gdc_realn.bam b4817cb1d6cd07a859f2f4f7b546d053
TCGA-A6-3807-11A-01W-0995-10_hg19_Illumina_gdc_realn.bam 8bd3a88509c25f439de77cd48c4b46bb TCGA-A6-3807-10A-01D-1459-10_hg19_Illumina_gdc_realn.bam 93ca9129d5f8d3bc2d70d734a1712cbd
TCGA-A6-3808-11A-01W-0995-10_Illumina_gdc_realn.bam 66fd67deced6202fab98f4b9aba3663a TCGA-A6-3808-10A-01D-1459-10_hg19_Illumina_gdc_realn.bam 9d2becabfee84b67726184ada395907a
TCGA-A6-3810-11A-01W-0995-10_hg19_Illumina_gdc_realn.bam 3ed9c6096a55ddc43b9372e1bdac9660 TCGA-A6-3810-10A-01D-A270-10_Illumina_gdc_realn.bam fe7a34c93eeb5229df7035c02839a8c9
TCGA-A6-4107-11A-01D-1554-10_Illumina_gdc_realn.bam a78a49b34793910d9d83ae4b0dcca964 TCGA-A6-4107-10A-01D-2188-10_Illumina_gdc_realn.bam 9d9c0d9f04572fb2ac6839130b66f122
TCGA-A6-5657-11A-01D-1650-10_Illumina_gdc_realn.bam 68dc6468e710fced8b906919487f5906 TCGA-A6-5657-10A-01D-1650-10_hg19_Illumina_gdc_realn.bam 38af5582f0c576612f982141f722c56a
TCGA-A6-5659-11A-01D-1650-10_Illumina_gdc_realn.bam add06917ea74e8d511e1d684757b20f9 TCGA-A6-5659-10A-01D-A270-10_Illumina_gdc_realn.bam cf0c08e2faef29c5f47027f64ab36eb8
TCGA-A6-5660-11A-01D-1650-10_hg19_Illumina_gdc_realn.bam 072c91e3f7af362556b6f96c4c0ccf2f TCGA-A6-5660-10A-01D-1650-10_Illumina_gdc_realn.bam 072b1bfcee563eaf3474d49f8da77cd6
TCGA-A6-5661-11A-01D-1650-10_Illumina_gdc_realn.bam 49b210e132d83cef0e9660f5049b8f37 TCGA-A6-5661-10A-01D-1650-10_Illumina_gdc_realn.bam 5ee4fa342d41433704715e5d564218da
TCGA-A6-5662-11A-01D-1650-10_Illumina_gdc_realn.bam 256d87ef2e6f3eabc752047959e5f58f TCGA-A6-5662-10A-01D-1650-10_hg19_Illumina_gdc_realn.bam 51998d12e064924784c6e1ae9b42a460
TCGA-A6-5665-11A-01D-1650-10_Illumina_gdc_realn.bam 709fa0f20d3dd161bdebe5c961fc3ec4 TCGA-A6-5665-10A-01D-1650-10_hg19_Illumina_gdc_realn.bam 6134dd9e170067798419a2fecb030971
TCGA-A6-5666-11A-01D-1650-10_Illumina_gdc_realn.bam 81937b3abcdfcfa852001850851e5703 TCGA-A6-5666-10A-01D-1650-10_hg19_Illumina_gdc_realn.bam c77b909a9d425e25d081630a5cb8a267
TCGA-A6-5667-11A-01D-1719-10_Illumina_gdc_realn.bam 8c878fe7963f7ac3cf23e76e2dd24217 TCGA-A6-5667-10A-01D-1719-10_Illumina_gdc_realn.bam 13d99172962bcb7710c2017aca927cbe
TCGA-A7-A0CE-11A-21W-A100-09_IlluminaGA-DNASeq_exome_gdc_realn.bam c43f3290350644370814b345aabb5ee4 TCGA-A7-A0CE-10A-01W-A021-09_IlluminaGA-DNASeq_exome_gdc_realn.bam b0e97ab4be2ae8d44ecc980c7130db97
TCGA-A7-A0D9-11A-53W-A100-09_HOLD_QC_PENDING_IlluminaGA-DNASeq_exome_gdc_realn.bam 1af751dd02a7a8204e6e81bc8ffd0723 TCGA-A7-A0D9-10A-01W-A071-09_HOLD_QC_PENDING_IlluminaGA-DNASeq_exome_gdc_realn.bam 054ddbb4683bc060520e19d648d04e9b
TCGA-A7-A0DB-11A-33W-A100-09_IlluminaGA-DNASeq_exome_gdc_realn.bam 267adc34318a04211873edca4cc90c25 TCGA-A7-A0DB-10A-01W-A021-09_IlluminaGA-DNASeq_exome_gdc_realn.bam 6c0b4af2941b8ba712ddbfd5fe28a335
TCGA-A7-A13E-11A-61D-A12Q-09_IlluminaGA-DNASeq_exome_gdc_realn.bam 6694b7ee01e68e4965616162f7185d1e TCGA-A7-A13E-10A-01D-A12Q-09_IlluminaGA-DNASeq_exome_gdc_realn.bam 334097f27cdf612c4a07511be1a301e5
TCGA-A7-A13F-11A-42D-A12Q-09_IlluminaGA-DNASeq_exome_gdc_realn.bam d9c87532172f4fc47cd5a717c1005a63 TCGA-A7-A13F-10A-01D-A12Q-09_IlluminaGA-DNASeq_exome_gdc_realn.bam 8fc494242d1584adc792cbe101e4f921
TCGA-AA-3514-11A-01D-1554-10_Illumina_gdc_realn.bam 43ea44b9989dba23aca447009a6d104b TCGA-AA-3514-10A-01D-1953-10_gapfillers_Illumina_gdc_realn.bam 0a81ee9a0434069f7312be6eaefe773a
TCGA-AA-3517-11A-01D-1554-10_Illumina_gdc_realn.bam 3ec24a8cbedf02722aff94690c313e8d TCGA-AA-3517-10A-01D-1953-10_gapfillers_Illumina_gdc_realn.bam 72d09aefcec05737e68b033166a91447
TCGA-AA-3519-11A-01D-1554-10_Illumina_gdc_realn.bam b4ef1c087d880990198cb8e6d91cfeb6 TCGA-AA-3519-10A-01D-1953-10_gapfillers_Illumina_gdc_realn.bam 230e451a2f3537f9a9a6f8761e60250d
TCGA-AA-3522-11A-01D-1554-10_Illumina_gdc_realn.bam 4ab37aa33bc4430fb633f4063364db6b TCGA-AA-3522-10A-01D-1953-10_gapfillers_Illumina_gdc_realn.bam 48bb85fa4aa38f513100156fae008ddf
TCGA-AA-3524-11A-01D-1554-10_Illumina_gdc_realn.bam f9a0783df2f36f3ddc885ef53fce7f02 TCGA-AA-3524-10A-01W-0831-10_gapfillers_Illumina_gdc_realn.bam 1e75fd0757364073961ed64627dfb659
TCGA-AA-3526-11A-01D-1554-10_Illumina_gdc_realn.bam ce9f2f90bf4e1f9dc77f303b32b6394f TCGA-AA-3526-10A-01W-0831-10_gapfillers_Illumina_gdc_realn.bam 7706f7fda3b76a3357a0cdcded51249d
TCGA-AA-3527-11A-01D-1554-10_Illumina_gdc_realn.bam 31231f1ee80a83e7e1889fdf40dddfc1 TCGA-AA-3527-10A-01D-1953-10_gapfillers_Illumina_gdc_realn.bam 72c0054b7c841d611e9d7aa2928c03a5
TCGA-AA-3529-11A-01D-1554-10_Illumina_gdc_realn.bam 5b012e9928ec75e2ddd94cccb2685b43 TCGA-AA-3529-10A-01W-0831-10_gapfillers_Illumina_gdc_realn.bam 63e524b89139c369f87c8508ddf89ab6
TCGA-AA-3530-11A-01D-1554-10_hg19_Illumina_gdc_realn.bam 907a096fa1c705cfa2f182c35516768c TCGA-AA-3530-10A-01W-0995-10_hg19_Illumina_gdc_realn.bam e2f42d9c71cc22f7b5301c25360f8da1
TCGA-AA-3531-11A-01D-1554-10_Illumina_gdc_realn.bam 40c794a876a85ca6a33e7d144ac985aa TCGA-AA-3531-10A-01D-1953-10_gapfillers_Illumina_gdc_realn.bam e791acad4a5b9b32533662b92d3ac5e7
TCGA-AA-3532-11A-01D-1554-10_Illumina_gdc_realn.bam 798a6b8cda4974d8b5b243e28a6b54fd TCGA-AA-3532-10A-01W-0831-10_gapfillers_Illumina_gdc_realn.bam 4550c14440827cfee3f80a8eb2f2e27d
TCGA-AA-3534-11A-01D-1554-10_Illumina_gdc_realn.bam 293a33eade8aef8ae464fbc7c6b38a29 TCGA-AA-3534-10A-01W-0831-10_gapfillers_Illumina_gdc_realn.bam 3aa46d9b1dbe4989b3bbd24f6f7a76be
TCGA-AF-2689-11A-01D-1554-10_Illumina_gdc_realn.bam f841a0caca2741b6d46eee8d7a8eaf1c TCGA-AF-2689-10A-01D-1989-10_gapfillers_Illumina_gdc_realn.bam ba2218ec0d0066dc5c385a79fae437ad
TCGA-AF-2691-11A-01D-1554-10_Illumina_gdc_realn.bam f802c55ede7d7731ff56c1c24365e676 TCGA-AF-2691-10A-01D-1989-10_gapfillers_Illumina_gdc_realn.bam 14c9fff68d43102dfd2db19027bc463b
TCGA-AF-2692-11A-01D-1554-10_Illumina_gdc_realn.bam f0d57f45a6b65e266dfa6e422f680f54 TCGA-AF-2692-10A-01D-1989-10_gapfillers_Illumina_gdc_realn.bam 3695c56bf780aed66aea16e9c1522b82
TCGA-AF-3400-11A-01D-1554-10_Illumina_gdc_realn.bam f90e1fff9060c52edb41e22075ff82ea TCGA-AF-3400-10A-01D-1989-10_gapfillers_Illumina_gdc_realn.bam 663551b05b9fc3908f032a9252a86452
TCGA-AF-5654-11A-11D-1657-10_Illumina_gdc_realn.bam 4280e432264cd5498e0ae08106c701cb TCGA-AF-5654-10A-01D-1657-10_hg19_Illumina_gdc_realn.bam bf61a45df6a345b02524ecca96bd96f7
TCGA-B1-A47M-11A-11D-A25F-10_Illumina_gdc_realn.bam d3ea545026c13357900f8d592f26691e TCGA-B1-A47M-10A-01D-A25F-10_Illumina_gdc_realn.bam e79f9f0e0cd85d9a7ab780532988bdab
TCGA-B2-5633-11A-01D-1534-10_Illumina_gdc_realn.bam e4462f258403993a3b39ff0d80c4f2aa TCGA-B2-5633-10A-01D-A270-10_Illumina_gdc_realn.bam b9e54cc4c5ec2828ec9e5a095980df78
TCGA-B2-5635-11A-01D-1534-10_Illumina_gdc_realn.bam 682f91d758789914e37dc653c484143e TCGA-B2-5635-10A-01D-A270-10_Illumina_gdc_realn.bam cd18efa2bf4555518d491c857fbc8bb3
TCGA-B2-5636-11A-01D-1534-10_Illumina_gdc_realn.bam b98fab1048c050d8180e5626d352aac0 TCGA-B2-5636-10A-01D-1535-10_Illumina_gdc_realn.bam 8449970ddfb4ccd510ba54f78b42e576
TCGA-B2-5639-11A-01D-1534-10_Illumina_gdc_realn.bam c021f90e00e11fb9b6e5456f6c762549 TCGA-B2-5639-10A-01D-1535-10_Illumina_gdc_realn.bam 39f1028f5bcfdc0ba35b71eb7b4c2ab8
TCGA-B2-5641-11A-01D-1534-10_Illumina_gdc_realn.bam 90707247967b9686cc7acd77618d68ab TCGA-B2-5641-10A-01D-1535-10_Illumina_gdc_realn.bam 266daa690e61182a6f886cf7132947bd
TCGA-B2-A4SR-11A-11D-A25V-10_Illumina_gdc_realn.bam fed572f1f92b34282e68938ea32fe6d7 TCGA-B2-A4SR-10A-01D-A25V-10_Illumina_gdc_realn.bam 14bc7185649c9744c6fea23184ef1ccb
TCGA-B3-A6W5-11A-21D-A33Q-10_Illumina_gdc_realn.bam aac1371e09f21c39217777e2f838797e TCGA-B3-A6W5-10A-01D-A33Q-10_Illumina_gdc_realn.bam 71d4fa3ce39b476484a1d1c937847c06
TCGA-B8-5546-11A-01D-1534-10_Illumina_gdc_realn.bam cf6aa62ddb960b9980be4bd4bc99f3ff TCGA-B8-5546-10A-01D-1535-10_Illumina_gdc_realn.bam 8588660254dd1832891ccb7680ac464f
TCGA-B8-5549-11A-01D-1534-10_Illumina_gdc_realn.bam b82e05fb3eb2bd75f4cb13216482e8bc TCGA-B8-5549-10A-01D-1535-10_Illumina_gdc_realn.bam 69ca6e5b29f8b0eaf2c2eaca29f9d79b
TCGA-B8-5551-11A-01D-1534-10_Illumina_gdc_realn.bam 67cd81e014d8eda46e8dc2f952f579c7 TCGA-B8-5551-10A-01D-1535-10_Illumina_gdc_realn.bam 249429063b9edfcd6ddbe8005b6d011c
TCGA-BH-A0AY-11A-23W-A100-09_IlluminaGA-DNASeq_exome_gdc_realn.bam 2997e907187bf6bae6d9315bb5c11c4a TCGA-BH-A0AY-10A-01W-A021-09_IlluminaGA-DNASeq_exome_gdc_realn.bam 90ff5a36743336aee0e0f7d8ff15687e
TCGA-BH-A0B7-11A-34D-A10Y-09_IlluminaGA-DNASeq_exome_2_gdc_realn.bam 7161daac700448cb0f7c3c24f0be6c08 TCGA-BH-A0B7-10A-01D-A110-09_IlluminaGA-DNASeq_exome_1_gdc_realn.bam fc48b353f1e82f83f38b029e4c6443a2
TCGA-BH-A0B8-11A-41W-A10F-09_HOLD_QC_PENDING_IlluminaGA-DNASeq_exome_gdc_realn.bam 5b1449cdefbfc11cedbec0fa6810efa9 TCGA-BH-A0B8-10A-01W-A071-09_HOLD_QC_PENDING_IlluminaGA-DNASeq_exome_gdc_realn.bam 30af1b065918a74cc5885e078ecb20dd
TCGA-BH-A0BA-11A-22W-A100-09_HOLD_QC_PENDING_IlluminaGA-DNASeq_exome_gdc_realn.bam 97d88dfb2742427093f8354452004186 TCGA-BH-A0BA-10A-01W-A071-09_HOLD_QC_PENDING_IlluminaGA-DNASeq_exome_gdc_realn.bam 27227ce820cc24b125f783b241d1828f
TCGA-BH-A0BC-11A-22D-A10E-09_IlluminaGA-DNASeq_exome_gdc_realn.bam abd77bdb7903ec55ed991b10271470d0 TCGA-BH-A0BC-10A-01D-A099-09_IlluminaGA-DNASeq_exome_gdc_realn.bam a7268ec4260b58c2a3f3494533ae6458
TCGA-BH-A0BJ-11A-23W-A100-09_HOLD_QC_PENDING_IlluminaGA-DNASeq_exome_gdc_realn.bam 5f1386b58cd5ac3e9472b4e54cd51948 TCGA-BH-A0BJ-10A-01W-A071-09_HOLD_QC_PENDING_IlluminaGA-DNASeq_exome_gdc_realn.bam a0c012190cb37145ec5e368053532ad4
TCGA-BH-A0BM-11A-12W-A10F-09_HOLD_QC_PENDING_IlluminaGA-DNASeq_exome_gdc_realn.bam 01679d2817a084cbfe43c83ea3ea5d25 TCGA-BH-A0BM-10A-01W-A071-09_HOLD_QC_PENDING_IlluminaGA-DNASeq_exome_gdc_realn.bam 1b771247b4af44d4dc7c2720b75cedef
TCGA-BH-A0BO-11A-11D-A12B-09_IlluminaGA-DNASeq_exome_gdc_realn.bam bac5224143a0f8bc1a0b867397337478 TCGA-BH-A0BO-10A-01D-A12B-09_IlluminaGA-DNASeq_exome_gdc_realn.bam c6f80c114cee5b671045ef7bf88bf224
TCGA-BH-A0BV-11A-31W-A100-09_IlluminaGA-DNASeq_exome_gdc_realn.bam 42f219fd1ed4d796bfe76bb0c4cb1d00 TCGA-BH-A0BV-10A-01W-A021-09_IlluminaGA-DNASeq_exome_gdc_realn.bam ecbf9171ab7ba94a6c899573875c4595
TCGA-BH-A0BW-11A-12D-A10Y-09_IlluminaGA-DNASeq_exome_gdc_realn.bam d10e8155c1bba254a9f9263344d2b7d5 TCGA-BH-A0BW-10A-01D-A110-09_IlluminaGA-DNASeq_exome_gdc_realn.bam 58f6175cefb29d5f9fb58ed06ca6f57e
TCGA-BH-A0C0-11A-21W-A100-09_HOLD_QC_PENDING_IlluminaGA-DNASeq_exome_gdc_realn.bam 71227b9044ae9fa80d27f6943b3ffe53 TCGA-BH-A0C0-10A-01W-A071-09_HOLD_QC_PENDING_IlluminaGA-DNASeq_exome_gdc_realn.bam d26855bfd6d529e742bd571158f5edd2
TCGA-BH-A0DE-11A-23D-A10Y-09_IlluminaGA-DNASeq_exome_gdc_realn.bam 1e403299b1cd1357e91c98d044a071cb TCGA-BH-A0DE-10A-02D-A110-09_IlluminaGA-DNASeq_exome_gdc_realn.bam 96025ac8570ca2837841549832401cd6
TCGA-BH-A0DH-11A-31D-A10E-09_IlluminaGA-DNASeq_exome_gdc_realn.bam 284b11eb5ba66b397a8629484dff0a2a TCGA-BH-A0DH-10A-01D-A099-09_IlluminaGA-DNASeq_exome_gdc_realn.bam bd7b273f3bf9a6b251607b1d33fc1b25
TCGA-BH-A0DK-11A-13W-A100-09_HOLD_QC_PENDING_IlluminaGA-DNASeq_exome_gdc_realn.bam 5a9c4f7d2ae08bc0747f4904f83684cc TCGA-BH-A0DK-10A-01W-A071-09_HOLD_QC_PENDING_IlluminaGA-DNASeq_exome_gdc_realn.bam e3afb2acb70dc9874d9df042b639f8f8
TCGA-BH-A0DL-11A-13D-A10Y-09_IlluminaGA-DNASeq_exome_gdc_realn.bam 66afb231070f6e591b24672e5db9e15d TCGA-BH-A0DL-10A-01D-A110-09_IlluminaGA-DNASeq_exome_gdc_realn.bam 6bb5a523c5c8b3e27c0103ac489f63bf
TCGA-BH-A0DP-11A-12W-A100-09_HOLD_QC_PENDING_IlluminaGA-DNASeq_exome_gdc_realn.bam c7d3382040f2382780185b24e1f7e070 TCGA-BH-A0DP-10A-01W-A071-09_HOLD_QC_PENDING_IlluminaGA-DNASeq_exome_gdc_realn.bam ebbf1dfa5ac2a35437c404c08743b38a
TCGA-BH-A0DQ-11A-12D-A100-09_IlluminaGA-DNASeq_exome_gdc_realn.bam ccd7722332a1eeae079463e668a0e753 TCGA-BH-A0DQ-10A-01D-A099-09_IlluminaGA-DNASeq_exome_gdc_realn.bam b5f0763b00540dc9d7ef2747e12b130e
TCGA-BH-A0DZ-11A-22W-A100-09_IlluminaGA-DNASeq_exome_gdc_realn.bam ca94b4462496876d46e63dd3589c5b36 TCGA-BH-A0DZ-10A-01W-A021-09_IlluminaGA-DNASeq_exome_gdc_realn.bam e55909c7a48acaccf4e9d151ec6c28c2
TCGA-BH-A0E0-11A-13W-A10F-09_HOLD_QC_PENDING_IlluminaGA-DNASeq_exome_gdc_realn.bam ef15ad79f565b2344574ade664760809 TCGA-BH-A0E0-10A-01W-A071-09_HOLD_QC_PENDING_IlluminaGA-DNASeq_exome_gdc_realn.bam e81ed6c6d4305eee737c0e84874abdc2
TCGA-BH-A0E1-11A-13W-A100-09_HOLD_QC_PENDING_IlluminaGA-DNASeq_exome_gdc_realn.bam 2cfece1b029554db733e2ab38dd56797 TCGA-BH-A0E1-10A-01W-A071-09_HOLD_QC_PENDING_IlluminaGA-DNASeq_exome_gdc_realn.bam d7b348df5c785868a72117c66beaac8f
TCGA-BH-A0H5-11A-62D-A10Y-09_IlluminaGA-DNASeq_exome_gdc_realn.bam 793a5c269dcd43d0a103191cd5de4f1e TCGA-BH-A0H5-10A-01D-A110-09_IlluminaGA-DNASeq_exome_gdc_realn.bam 7d822175b1f0d5f8aabbcc7d66b88da1
TCGA-BH-A0H7-11A-13W-A100-09_HOLD_QC_PENDING_IlluminaGA-DNASeq_exome_gdc_realn.bam 7d54e21b3f6b49ff5aeb621ab10e5444 TCGA-BH-A0H7-10A-01W-A071-09_HOLD_QC_PENDING_IlluminaGA-DNASeq_exome_gdc_realn.bam 9c130ab5aa30f288fccb9ec48d940e82
TCGA-BH-A0H9-11A-22W-A10F-09_HOLD_QC_PENDING_IlluminaGA-DNASeq_exome_gdc_realn.bam 3990ccac80f1345e90281a36e88d0961 TCGA-BH-A0H9-10A-01W-A071-09_HOLD_QC_PENDING_IlluminaGA-DNASeq_exome_gdc_realn.bam 2ec6bfec30d963ecd1fc529da322a3c3
TCGA-BH-A0HK-11A-11W-A100-09_IlluminaGA-DNASeq_exome_1_gdc_realn.bam e2d570abbe10e132ed0d9b727cfb20a6 TCGA-BH-A0HK-10A-01W-A071-09_HOLD_QC_PENDING_IlluminaGA-DNASeq_exome_gdc_realn.bam e9aa5831237453f10218d4ec58f42ab4
TCGA-BK-A0CB-11A-33D-A10B-09_IlluminaGA-DNASeq_exome_gdc_realn.bam 77d374c507d39267ca0bfb524ba5c12c TCGA-BK-A0CB-10A-05W-A10C-09_IlluminaGA-DNASeq_exome_1_gdc_realn.bam 005ec25e8f53b723ca78e3a9261a3a73
TCGA-DD-A113-11A-12D-A12Z-10_Illumina_gdc_realn.bam cad56e5a70cda8ab58832946d1195f66 TCGA-DD-A113-10A-01D-A12Z-10_Illumina_gdc_realn.bam 634a824d06adf184ae1d9b6d7ecb7e5e
TCGA-DD-A115-11A-12D-A12Z-10_Illumina_gdc_realn.bam 3209874da9f6e7a1f543bfd3de64a45a TCGA-DD-A115-10A-01D-A12Z-10_Illumina_gdc_realn.bam acf3ff03a000c6386900029856f0200c
TCGA-DD-A116-11A-11D-A12Z-10_Illumina_gdc_realn.bam 8a4dab45562c037228c50a24f8564546 TCGA-DD-A116-10A-01D-A12Z-10_Illumina_gdc_realn.bam 43d79e011cf195826f1f79307c020c26
TCGA-DD-A119-11A-11D-A12Z-10_Illumina_gdc_realn.bam 1384b19f4df7756092a66ed2c60bf37d TCGA-DD-A119-10A-01D-A12Z-10_Illumina_gdc_realn.bam a8773c2b1a6d96e11c4b4822d7a84a06
TCGA-DD-A11A-11A-11D-A12Z-10_Illumina_gdc_realn.bam c8f32165a79b7769cad59b2c5806bcbd TCGA-DD-A11A-10A-01D-A12Z-10_Illumina_gdc_realn.bam c305e2c9697de0fee61985fdc1816bcb
TCGA-DD-A11B-11A-11D-A12Z-10_Illumina_gdc_realn.bam 54e1dacedd552e872dd23fc4930ac821 TCGA-DD-A11B-10A-01D-A12Z-10_Illumina_gdc_realn.bam 2db5c0ab12044f74d180b50303fc608b
TCGA-DD-A1EB-11A-11D-A12Z-10_Illumina_gdc_realn.bam d867955a8456e01f24e1e78ae6ae3504 TCGA-DD-A1EB-10A-01D-A12Z-10_Illumina_gdc_realn.bam 4052c426f0183882030b992edaa7b642
TCGA-DD-A1EE-11A-11D-A12Z-10_Illumina_gdc_realn.bam 9cb735ddfcbd588b6e622c3594a4b158 TCGA-DD-A1EE-10A-01D-A12Z-10_Illumina_gdc_realn.bam 14fc52a2566153e599a6154f76816253
TCGA-DD-A1EF-11A-11D-A12Z-10_Illumina_gdc_realn.bam d278395be78fc2139d8e0d130aba83eb TCGA-DD-A1EF-10A-01D-A12Z-10_Illumina_gdc_realn.bam 73c1a800fae3eef17f4f43dba5e4fe29
TCGA-DD-A1EG-11A-11D-A20W-10_Illumina_gdc_realn.bam e4d44f38588746aec51168efcee52e79 TCGA-DD-A1EG-10A-01D-A20W-10_Illumina_gdc_realn.bam 0d81ec5178068b4839cda780b8251971
TCGA-DD-A1EH-11A-11D-A12Z-10_Illumina_gdc_realn.bam d03e3ddede300ffc96efd41b2dd440ca TCGA-DD-A1EH-10A-01D-A12Z-10_Illumina_gdc_realn.bam a5a54b28e1d4851b691192146f15a41d
TCGA-DD-A4NG-11A-11D-A27I-10_Illumina_gdc_realn.bam 7121759a8de491d887c0660345404d71 TCGA-DD-A4NG-10A-01D-A27I-10_Illumina_gdc_realn.bam 0de352b7585f60244f51e3c84435d71a
TCGA-DD-A4NH-11A-11D-A27I-10_Illumina_gdc_realn.bam 0aa90aadb6d7663b404348223ac48d62 TCGA-DD-A4NH-10A-01D-A27I-10_Illumina_gdc_realn.bam 066932ebc20d7e18cbf8e10d4f0b33cc
TCGA-DD-A4NI-11A-11D-A27I-10_Illumina_gdc_realn.bam 7871d9e1a97d2b0111e3c6c6a1e73666 TCGA-DD-A4NI-10A-01D-A27I-10_Illumina_gdc_realn.bam 223d96ee945674c5176b9fa839075ff7
TCGA-DD-A4NJ-11A-11D-A27I-10_Illumina_gdc_realn.bam a675ad4659261b0d28648ff10434c770 TCGA-DD-A4NJ-10A-01D-A27I-10_Illumina_gdc_realn.bam cec18c00f0cb074465a42cc0f8cc05fa
TCGA-DD-A4NK-11A-11D-A28X-10_Illumina_gdc_realn.bam d42a58670a6747aabe84d0d3afe2a5ae TCGA-DD-A4NK-10A-01D-A28X-10_Illumina_gdc_realn.bam 6037fa83f4a0f766efcc55b1aa88ded0
TCGA-DD-A4NN-11A-11D-A28X-10_Illumina_gdc_realn.bam 51f1c263c48e791cdd322ef202180704 TCGA-DD-A4NN-10A-01D-A28X-10_Illumina_gdc_realn.bam c94c1ac2cd8f34379087c1aac23dd346
TCGA-DD-A4NO-11A-11D-A28X-10_Illumina_gdc_realn.bam 251b38b46fa8457d3e82c2e8fd323d50 TCGA-DD-A4NO-10A-01D-A28X-10_Illumina_gdc_realn.bam f8834a18ea4bdb8c9b14a5ac062772e1
TCGA-DD-A4NP-11A-11D-A28X-10_Illumina_gdc_realn.bam 694b770031dfc447e0679ceeba7802b2 TCGA-DD-A4NP-10A-01D-A28X-10_Illumina_gdc_realn.bam 4a93a1dee98be325dfdd52c5aee8c411
TCGA-DD-A4NQ-11A-11D-A28X-10_Illumina_gdc_realn.bam eea75fb3e5e17bb1fcd212704d49af24 TCGA-DD-A4NQ-10A-01D-A28X-10_Illumina_gdc_realn.bam 35244c9d2441c85d0a39cbc856f8470a
TCGA-DD-A4NR-11A-11D-A30V-10_Illumina_gdc_realn.bam c2b2068145c799ca496cdda9fce05aa8 TCGA-DD-A4NR-10A-01D-A30V-10_Illumina_gdc_realn.bam 478ac8ea7edf8b6794d465dd63252b80
TCGA-DD-A4NS-11A-11D-A30V-10_Illumina_gdc_realn.bam 40d279bfd1c5535aedacfe0aebeca9d8 TCGA-DD-A4NS-10A-01D-A30V-10_Illumina_gdc_realn.bam db29fe6529cad5cbc2e7698803e2525f
TCGA-DD-A4NV-11A-11D-A30V-10_Illumina_gdc_realn.bam 004044b55ebdc37b3cfb5fdf36a14854 TCGA-DD-A4NV-10A-01D-A30V-10_Illumina_gdc_realn.bam 0ee34abf6b04a906cb67700c27197cbc
TCGA-E2-A14Y-11A-33D-A12B-09_IlluminaGA-DNASeq_exome_gdc_realn.bam 3c1c239cf7abd209864103d72c121282 TCGA-E2-A14Y-10A-01D-A12B-09_IlluminaGA-DNASeq_exome_gdc_realn.bam 27327f91914dacc9a34ca97149a18d4b
TCGA-E2-A153-11A-31D-A12B-09_IlluminaGA-DNASeq_exome_gdc_realn.bam aa45fd1db7def6abc617e21575fbc55f TCGA-E2-A153-10A-01D-A12B-09_IlluminaGA-DNASeq_exome_gdc_realn.bam 6e7c1bde76d622e3f9fa844500e10a18
TCGA-E2-A158-11A-22D-A12B-09_IlluminaGA-DNASeq_exome_gdc_realn.bam 32c98195c19269c6f74b2275a385b2e3 TCGA-E2-A158-10A-01D-A12B-09_IlluminaGA-DNASeq_exome_gdc_realn.bam c74c843ce7d33eef91532fa36bbaf962
TCGA-E2-A15K-11A-13D-A12Q-09_IlluminaGA-DNASeq_exome_gdc_realn.bam e10ced6ec7b598cba9c12345a41540f8 TCGA-E2-A15K-10A-01D-A12Q-09_IlluminaGA-DNASeq_exome_gdc_realn.bam 1c5a480805b3a075a6c66b8687f697f2
TCGA-E2-A15L-11A-31D-A12B-09_IlluminaGA-DNASeq_exome_gdc_realn.bam 66f2e1d1dbb1e69a9c5baee43ee97f6a TCGA-E2-A15L-10A-01D-A12B-09_IlluminaGA-DNASeq_exome_gdc_realn.bam 4e95a5b51e36198867eda5c67fb8b73d
TCGA-E2-A15M-11A-22D-A12B-09_IlluminaGA-DNASeq_exome_gdc_realn.bam 62261b6782770dc681c5c1de17226f3e TCGA-E2-A15M-10A-01D-A12B-09_IlluminaGA-DNASeq_exome_gdc_realn.bam 9a44c69af1aa11e0d94c7976cd5c4309
TCGA-E2-A1B5-11A-23D-A12Q-09_IlluminaGA-DNASeq_exome_gdc_realn.bam b7eb8b2888c9c09110c92f1b7ed513db TCGA-E2-A1B5-10A-01D-A12Q-09_IlluminaGA-DNASeq_exome_gdc_realn.bam 9a70189f2114c7bb58c449c57bb9ec17
TCGA-E2-A1BC-11A-32D-A12Q-09_IlluminaGA-DNASeq_exome_gdc_realn.bam 595152e12b7f4d7f814b453acdc0fcc5 TCGA-E2-A1BC-10A-01D-A12Q-09_IlluminaGA-DNASeq_exome_gdc_realn.bam 05f0be58549157831123ec6a2973617e
TCGA-EP-A12J-11A-11D-A12Z-10_Illumina_gdc_realn.bam 2f519de8220509444af16522ba639e09 TCGA-EP-A12J-10A-01D-A12Z-10_Illumina_gdc_realn.bam 4b09c922d400da64b67c282327434d38
TCGA-EP-A26S-11A-12D-A16V-10_Illumina_gdc_realn.bam 89ab97d3e3adbb05d69837fa8b046425 TCGA-EP-A26S-10A-01D-A16V-10_Illumina_gdc_realn.bam c6a4974013a372244840a412f83eb645
TCGA-EP-A3RK-11A-11D-A22F-10_Illumina_gdc_realn.bam 66d661ebdb65c26157e86950597f44be TCGA-EP-A3RK-10A-01D-A22F-10_Illumina_gdc_realn.bam f00e3cd4056840e567c80d6327f5fda2
TCGA-FV-A3I1-11A-11D-A22F-10_Illumina_gdc_realn.bam a39a2ed7a7c7b983c7d15d0a83f5bde2 TCGA-FV-A3I1-10A-01D-A22F-10_Illumina_gdc_realn.bam 4bb699bad4f9fc4dda6f39fcc54517df
TCGA-FV-A495-11A-11D-A25V-10_Illumina_gdc_realn.bam d9029e7c2216fb63157f9e51bbe6e0db TCGA-FV-A495-10A-01D-A25V-10_Illumina_gdc_realn.bam 301b3d771421188d6918c152f9bdb15b
TCGA-FV-A496-11A-12D-A25V-10_Illumina_gdc_realn.bam d7fce22bc3e979265dbfaa07696ae42d TCGA-FV-A496-10A-01D-A25V-10_Illumina_gdc_realn.bam 8dfc7a3a4eca4e1900e009442a761b98
TCGA-G4-6295-11A-01D-1719-10_hg19_Illumina_gdc_realn.bam db0f542a7e3c4255f0bcbeacaf5d77db TCGA-G4-6295-10A-01D-1719-10_hg19_Illumina_gdc_realn.bam c38ddb9e45d3af150886fd8f261f541b
TCGA-G4-6297-11A-01D-1719-10_hg19_Illumina_gdc_realn.bam 02e84703e9f4ba4b4071549c4e05190d TCGA-G4-6297-10A-01D-1719-10_hg19_Illumina_gdc_realn.bam 4d6ed5ddd725743220b5feba2ef44d37
TCGA-G4-6298-11A-01D-1719-10_hg19_Illumina_gdc_realn.bam 0b8b4b241d5d18857de5ac2776082efd TCGA-G4-6298-10A-01D-1719-10_hg19_Illumina_gdc_realn.bam 4d02eeb48c250253fc22094acd8a857f
TCGA-G4-6302-11A-01D-1719-10_hg19_Illumina_gdc_realn.bam a229601c19a06a0c5c4d6bc2e39ebb4a TCGA-G4-6302-10A-01D-1719-10_hg19_Illumina_gdc_realn.bam 5f1afcd421f22d7d743a7a231bc2c95f
TCGA-G4-6311-11A-01D-1719-10_hg19_Illumina_gdc_realn.bam 939caa5d48cca53d517579359e415eab TCGA-G4-6311-10A-01D-1720-10_Illumina_gdc_realn.bam 5aa44a192a8bd6ad8e72f267f25cc28b
TCGA-G4-6314-11A-01D-1719-10_hg19_Illumina_gdc_realn.bam f2373af19f00c65fdca4a1340dd091cc TCGA-G4-6314-10A-01D-1720-10_hg19_Illumina_gdc_realn.bam 304000aee8d62fdac658a7ce4e574c9c
TCGA-G4-6320-11A-01D-1719-10_hg19_Illumina_gdc_realn.bam 999d0dab93994c1a88e153c9118cc565 TCGA-G4-6320-10A-01D-1720-10_hg19_Illumina_gdc_realn.bam c955b0f9a0b820c18834968c34a1170e
TCGA-G4-6322-11A-01D-1719-10_hg19_Illumina_gdc_realn.bam f2f907617140605cd436d2dcd7b5a8d5 TCGA-G4-6322-10A-01D-1720-10_Illumina_gdc_realn.bam 74e9d3190fd48910dee9a4ea3830f5a4
TCGA-GJ-A6C0-11A-11D-A30V-10_Illumina_gdc_realn.bam f6b3d9ad82edacfab2eef224f5f732f1 TCGA-GJ-A6C0-10A-01D-A30V-10_Illumina_gdc_realn.bam 8c25a0aa1c2a3f2a3d83c527907619f0
TCGA-GL-A59R-11A-11D-A26P-10_Illumina_gdc_realn.bam 12bf72289fc8d1fedd8b654ee16a6929 TCGA-GL-A59R-10A-01D-A26P-10_Illumina_gdc_realn.bam 1814cc774bae61b8a7092c564c7cb927
TCGA-GL-A59T-11A-11D-A28G-10_Illumina_gdc_realn.bam ea83c61ddfd3819219b148830c816b60 TCGA-GL-A59T-10A-01D-A28G-10_Illumina_gdc_realn.bam 96640f496f16c529f1557c8a278f16f4
TCGA-GL-A9DD-11A-11D-A370-10_Illumina_gdc_realn.bam 302ad9dc4e10ec090fe5c5e85110a595 TCGA-GL-A9DD-10A-01D-A370-10_Illumina_gdc_realn.bam b2ce039e54baf23827dd0c3d1ccdbd85
TCGA-GL-A9DE-11A-11D-A370-10_Illumina_gdc_realn.bam 44f557bc2a63d6c981cc58b694be9dec TCGA-GL-A9DE-10A-01D-A370-10_Illumina_gdc_realn.bam 92d7017d9381050b78527af6eac15ec5
TCGA-K7-A5RG-11A-12D-A28X-10_Illumina_gdc_realn.bam edb7579ebde133c2874a7d7562934576 TCGA-K7-A5RG-10A-01D-A28X-10_Illumina_gdc_realn.bam 0451be63266cc60314aa066dc0c3f8eb
TCGA-KV-A6GD-11A-11D-A31X-10_Illumina_gdc_realn.bam 0665a3cd70240174b7a8e1a54d8a1dcc TCGA-KV-A6GD-10A-01D-A31X-10_Illumina_gdc_realn.bam 88eb53375297b585f9a4f40acf0da830
TCGA-KV-A74V-11A-11D-A33Q-10_Illumina_gdc_realn.bam c5f8f5efa11eec9418b6182093b27968 TCGA-KV-A74V-10A-01D-A33Q-10_Illumina_gdc_realn.bam 82b5a1ea26f09ebe112dd8024465590f
TCGA-LG-A6GG-11A-11D-A30V-10_Illumina_gdc_realn.bam 4f208ba7ebe37a0c3fdf91f3a24bced2 TCGA-LG-A6GG-10A-01D-A30V-10_Illumina_gdc_realn.bam 974e0bfa2d4873ca97e4534e045bdd71
TCGA-NI-A4U2-11A-11D-A28X-10_Illumina_gdc_realn.bam 1efed94d572233645b43752c64d4f0ce TCGA-NI-A4U2-10A-01D-A28X-10_Illumina_gdc_realn.bam be959b20dfa70fa88b0d67c0c6c684f9
TCGA-Y8-A8RY-11A-11D-A370-10_Illumina_gdc_realn.bam 87d97926339b20282ebfbf6f52a8e26a TCGA-Y8-A8RY-10A-01D-A370-10_Illumina_gdc_realn.bam 5e095ffd17daf9cfa61d682ee88ebe27
TCGA-Y8-A8RZ-11A-11D-A370-10_Illumina_gdc_realn.bam 7907c61714195b1415b97a1958c3f5fa TCGA-Y8-A8RZ-10A-01D-A370-10_Illumina_gdc_realn.bam 303e43f934a77df6ca3951c1611c1d3f
TCGA-Y8-A8S0-11A-11D-A370-10_Illumina_gdc_realn.bam 12d902c3cb34bc2f8410c4992addc45f TCGA-Y8-A8S0-10A-01D-A370-10_Illumina_gdc_realn.bam c5307e7e4dbae361e897e78d4f028fe0
TCGA-Y8-A8S1-11A-11D-A370-10_Illumina_gdc_realn.bam ff2e5c341231f4746139baa46be076af TCGA-Y8-A8S1-10A-01D-A370-10_Illumina_gdc_realn.bam 278ab12b85b7be4a1259db3e56500547
