C347.TCGA-44-2662-11A-01D-1553-08.4_gdc_realn.bam 686be08d-0617-4626-bb15-1e05a21b8661 C347.TCGA-44-2662-10A-01W-0928-08.6_gdc_realn.bam 028097cc-3830-485e-a0a8-26706717f443 10
C347.TCGA-44-4112-11A-01D-1105-08.12_gdc_realn.bam 1f0aa9f1-ba70-458f-a9ef-7edd2158293b C347.TCGA-44-4112-10A-01D-A271-08.5_gdc_realn.bam 4539baf0-fb18-45c5-ab98-c66bbd740602 17
C440.TCGA-BR-6452-11A-01D-1800-08.3_gdc_realn.bam ab3a813b-2960-473c-ab9e-d8ce954a99c9 C440.TCGA-BR-6452-10A-01D-1800-08.3_gdc_realn.bam 824e890c-41b8-47b2-bf62-1cf229e409ef 18
C440.TCGA-BR-6458-11A-01D-1800-08.3_gdc_realn.bam 912805d8-f698-4526-b64e-c62d240179d4 C440.TCGA-BR-6458-10A-01D-1800-08.3_gdc_realn.bam 528dbe62-4a2f-41ee-b1f6-a9ea6122367f 21
C440.TCGA-BR-6706-11A-01D-1882-08.6_gdc_realn.bam a8db69d6-5535-4f69-91cb-edbe6d78ddc3 C440.TCGA-BR-6706-10A-01D-1882-08.6_gdc_realn.bam e31e2cfd-8e54-41f9-904e-93141ae438b5 24
C440.TCGA-BR-6710-11A-01D-1882-08.6_gdc_realn.bam 773a0b7e-5b90-4094-986f-a94b92825383 C440.TCGA-BR-6710-10A-01D-1882-08.6_gdc_realn.bam 2f44c7f1-107c-4641-8997-11ca3da6b1c2 26
C440.TCGA-BR-6852-11A-01D-1882-08.6_gdc_realn.bam 84ed3d99-d811-4729-8009-cfc6c90b63fe C440.TCGA-BR-6852-10A-01D-1882-08.6_gdc_realn.bam d6d318d5-ed27-41be-ac12-2ba0dc3c59a6 29
C440.TCGA-BR-7197-11A-01D-2201-08.8_gdc_realn.bam b6883d48-a3ec-43c2-9007-f0631aab3aec C440.TCGA-BR-7197-10A-01D-2201-08.8_gdc_realn.bam ca62bc19-4cdf-4219-9b6a-5471bc5ec22a 30
C440.TCGA-HU-8604-11A-01D-2394-08.2_gdc_realn.bam 3b8b5fad-19da-4625-a8cd-d7b36fbc8596 C440.TCGA-HU-8604-10A-01D-2394-08.2_gdc_realn.bam 9d72b617-61dc-499c-af9f-016f388418df 43
C489.TCGA-B3-3925-11A-01D-1252-08.10_gdc_realn.bam 4162d04b-92e2-4e24-a52b-df8f2b40ced0 C489.TCGA-B3-3925-10A-01D-1458-08.10_gdc_realn.bam 42bdd8d6-17a5-47de-aeb7-520e399fbc05 61
C489.TCGA-GL-6846-11A-01D-1961-08.2_gdc_realn.bam 50c75ab1-64b8-4f8a-9124-4937982df13b C489.TCGA-GL-6846-10A-01D-1962-08.2_gdc_realn.bam b4763624-de3c-41cb-b68c-33aff489cdc0 68
C489.TCGA-GL-7966-11A-01D-2201-08.1_gdc_realn.bam 75c358ff-c972-4801-8a2e-ee010c69ff0d C489.TCGA-GL-7966-10A-01D-2201-08.1_gdc_realn.bam 7f0d5f5b-fb36-4408-b84c-4641ea890701 69
C489.TCGA-GL-8500-11A-01D-2396-08.1_gdc_realn.bam c4b8a0b3-f75f-469f-ba49-4141e6bb71ac C489.TCGA-GL-8500-10A-01D-2396-08.1_gdc_realn.bam 7fac0795-d26e-4132-8e87-e2c2e0e864e2 70
C495.TCGA-CV-6961-11A-01D-1912-08.4_gdc_realn.bam 944d46c2-1146-4cbb-9614-ed1191698287 C495.TCGA-CV-6961-10A-01D-1912-08.4_gdc_realn.bam 50a43cb6-6902-49af-beb7-6d2affee1e6b 91
C495.TCGA-CV-7091-11A-01D-2012-08.1_gdc_realn.bam 6f6bf08b-e94e-44a2-aba4-25378e74f734 C495.TCGA-CV-7091-10A-01D-2013-08.1_gdc_realn.bam e1c02a2f-02de-45a8-bbd5-e423c92d1750 94
C495.TCGA-CV-7183-11A-01D-2012-08.1_gdc_realn.bam 559ec594-9eec-44d3-9c30-f428e0b7ea73 C495.TCGA-CV-7183-10A-01D-2013-08.1_gdc_realn.bam d8929cf5-5cd1-406c-8144-8fabf6cb9068 101
C495.TCGA-CV-7248-11A-01D-2012-08.1_gdc_realn.bam 251b28f9-5f9e-4e1f-b216-5e84612b342b C495.TCGA-CV-7248-10A-01D-2013-08.1_gdc_realn.bam 8740391b-14f4-46c3-b8cc-7efada33062f 107
C495.TCGA-CV-7263-11A-01D-2012-08.1_gdc_realn.bam 6464445e-8288-485a-857f-f1b0289da66f C495.TCGA-CV-7263-10A-01D-2013-08.1_gdc_realn.bam 04451c02-8a4e-41bc-9939-10a1bf4631fa 112
C495.TCGA-CV-7416-11A-01D-2078-08.1_gdc_realn.bam ec05b557-ff88-4178-bba0-cb31ef924779 C495.TCGA-CV-7416-10A-01D-2078-08.1_gdc_realn.bam 53b33275-a691-4b3d-b25f-8760444bc8ee 115
C500.TCGA-BL-A13I-11A-11D-A13W-08.5_gdc_realn.bam fbdaa012-361d-498a-a701-5e443b6cd3f2 C500.TCGA-BL-A13I-10A-01D-A271-08.2_gdc_realn.bam d808906e-e0fc-433a-81b0-61e75a3b40ff 159
C500.TCGA-BL-A13J-11A-13D-A10S-08.7_gdc_realn.bam 3ad6a18d-329a-49c0-8558-bc049f21bbf6 C500.TCGA-BL-A13J-10A-01D-A271-08.2_gdc_realn.bam 9a0bfbed-9564-441a-af8a-d8765dc54954 160
C500.TCGA-GD-A3OP-11A-11D-A21Z-08.1_gdc_realn.bam e602c03d-b3ac-4442-a328-4b99623eac79 C500.TCGA-GD-A3OP-10A-01D-A21Z-08.1_gdc_realn.bam 0ec63617-69c6-412b-b6fd-323d28e1216c 168
C500.TCGA-GD-A3OQ-11A-21D-A21Z-08.1_gdc_realn.bam 158e8d20-650c-4997-85d6-70d3e362fa7b C500.TCGA-GD-A3OQ-10A-01D-A21Z-08.1_gdc_realn.bam 789fee6c-8050-494a-9f7e-80c3c744431a 169
C500.TCGA-K4-A3WV-11A-21D-A22Z-08.9_gdc_realn.bam 4091e55a-4280-4237-8475-5304a4930b67 C500.TCGA-K4-A3WV-10A-01D-A22Z-08.9_gdc_realn.bam 78d2802e-ed26-4a05-9750-a98871e07319 170
C508.TCGA-43-6773-11A-01D-1945-08.2_gdc_realn.bam 7e321e51-2562-4f5d-831d-487cfa165027 C508.TCGA-43-6773-10A-01D-1945-08.2_gdc_realn.bam 0e71a3f6-dea8-4e2d-87be-df7567cbc05b 182
C508.TCGA-43-8118-11A-01D-2395-08.1_gdc_realn.bam cce14820-47e0-4b08-bf52-65ca4b51a533 C508.TCGA-43-8118-10A-01D-2395-08.1_gdc_realn.bam 7e9ed3fe-6fe8-4cdb-9b06-acb019ee5fbf 183
C508.TCGA-56-8504-11A-01D-2395-08.1_gdc_realn.bam 8f80f596-cbd3-4577-9c42-10262b6704b0 C508.TCGA-56-8504-10A-01D-2395-08.1_gdc_realn.bam 2c4302f0-ae39-40c0-a546-828152a236d0 184
C508.TCGA-56-8623-11A-01D-2395-08.1_gdc_realn.bam 2a063f94-08eb-4438-97ed-b00d6c32e7f7 C508.TCGA-56-8623-10A-01D-2395-08.1_gdc_realn.bam 5703196b-835c-4d8e-bc35-bfe06f2bd7c5 186
C508.TCGA-77-6842-11A-01D-1945-08.5_gdc_realn.bam c440e5f6-e96f-4dbe-8516-8674d93f90f5 C508.TCGA-77-6842-10A-01D-1945-08.5_gdc_realn.bam 91279b17-64a4-45e9-aba1-9f6a07ab5b75 191
C509.TCGA-44-6774-11A-01D-1855-08.2_gdc_realn.bam dbf26e52-670e-43b3-8794-1e6ecac96708 C509.TCGA-44-6774-10A-01D-1855-08.2_gdc_realn.bam de2a76b8-e654-412d-b89d-f5908d8ae8be 199
C509.TCGA-44-6775-11A-01D-1855-08.7_gdc_realn.bam d98845b4-a808-42f1-bae3-d1a73d189b5f C509.TCGA-44-6775-10A-01D-A271-08.5_gdc_realn.bam 1003fa36-ee00-4a8b-8bac-7aa0f20e73d2 200
C509.TCGA-44-7669-11A-01D-2063-08.2_gdc_realn.bam 18b3447e-d35f-4629-ba90-58c0c84ae2ce C509.TCGA-44-7669-10A-01D-2063-08.2_gdc_realn.bam e015bd43-ba91-4b86-8925-bbaa9cb6dc8f 209
C509.TCGA-44-7670-11A-01D-2063-08.2_gdc_realn.bam 601e10a3-fb37-462c-8ee0-0274369f7a31 C509.TCGA-44-7670-10A-01D-2063-08.1_gdc_realn.bam c31ff008-5be3-4ebc-8728-91dd38891d45 210
C529.TCGA-EJ-7123-11A-01D-1961-08.2_gdc_realn.bam da80e9bf-b0f6-4157-9031-5c2332924a23 C529.TCGA-EJ-7123-10A-01D-1961-08.2_gdc_realn.bam b6774557-53e3-48cd-b6c5-db0873a22001 223
C529.TCGA-EJ-7327-11A-01D-2114-08.2_gdc_realn.bam f5025ac5-229c-45ee-8098-4c07f4abb42c C529.TCGA-EJ-7327-10A-01D-2114-08.2_gdc_realn.bam 67bacd34-6a3f-4ce0-b0ad-bc7079258f03 228
C529.TCGA-EJ-7328-11A-01D-2114-08.1_gdc_realn.bam 97602935-ab05-489a-b109-c963cdaa5942 C529.TCGA-EJ-7328-10A-01D-2114-08.1_gdc_realn.bam 5117a3fd-2c61-420a-8d63-41ea3d873830 229
C529.TCGA-EJ-7330-11A-01D-2114-08.2_gdc_realn.bam b6dab79a-ec1b-481b-959f-67ebac147e6a C529.TCGA-EJ-7330-10A-01D-2114-08.1_gdc_realn.bam 7268554e-605e-4b7b-bb76-cb7c728b83fc 230
C529.TCGA-EJ-7784-11A-01D-2114-08.1_gdc_realn.bam 01c6092d-cf72-482b-8e59-b615aac6b42b C529.TCGA-EJ-7784-10A-01D-2114-08.1_gdc_realn.bam 72c3c484-9e7f-4958-8839-b13eb6c40992 235
C529.TCGA-EJ-7785-11A-01D-2114-08.2_gdc_realn.bam cea773e3-2cd6-47df-af81-d7b0734eda7d C529.TCGA-EJ-7785-10A-01D-2114-08.2_gdc_realn.bam 520556d1-438b-457a-b7c2-4c82ff7b7386 236
C529.TCGA-G9-6353-11A-02D-1961-08.2_gdc_realn.bam e9e2757b-bbf2-4697-bd9c-c6f32b5d51d7 C529.TCGA-G9-6353-10A-01D-1961-08.2_gdc_realn.bam 345fba55-b6ae-4365-b7b3-ddf83d66e6b0 249
C529.TCGA-G9-6356-11A-01D-1786-08.3_gdc_realn.bam 57493f57-1e68-4345-a395-859aac83332c C529.TCGA-G9-6356-10A-01D-1786-08.3_gdc_realn.bam 9af62042-0c15-4f1b-9508-62a4f1df0ebf 250
C529.TCGA-G9-6367-11A-01D-1786-08.3_gdc_realn.bam c87d8786-4ffb-42f9-9fad-309b2fb0b89e C529.TCGA-G9-6367-10A-01D-1786-08.3_gdc_realn.bam 6f73609f-4806-4977-aad1-95dd31a4de27 255
C529.TCGA-G9-6496-11A-01D-1786-08.3_gdc_realn.bam 11a34bff-ae08-4afe-abca-28624a705d60 C529.TCGA-G9-6496-10A-01D-1786-08.3_gdc_realn.bam 90f32988-2344-49ec-b366-96a71d59a7c2 260
C529.TCGA-HC-7738-11A-01D-2114-08.2_gdc_realn.bam 1baf0693-f572-4dc1-8630-a603bad564c4 C529.TCGA-HC-7738-10A-01D-2115-08.2_gdc_realn.bam bb6a01ec-ef57-4149-9aef-db13b387b935 262
C529.TCGA-HC-7752-11A-01D-2114-08.1_gdc_realn.bam 5cfa5230-1659-4dc8-9d8f-1887a095a964 C529.TCGA-HC-7752-10A-01D-2115-08.1_gdc_realn.bam 10eb9e92-eb08-4734-86bf-d0126080723a 267
C529.TCGA-HC-7819-11A-01D-2114-08.1_gdc_realn.bam 0b6b219f-73b0-40b0-bf05-6a598b699d4a C529.TCGA-HC-7819-10A-01D-2115-08.1_gdc_realn.bam 05f7619b-77d2-4264-adf4-09fb3c801eec 268
C529.TCGA-HC-7820-11A-01D-2114-08.1_gdc_realn.bam 3118f19d-935b-4116-b7e3-3223ac51d030 C529.TCGA-HC-7820-10A-01D-2115-08.1_gdc_realn.bam 6bc6073d-083a-4fd8-b11e-34c2bb749105 269
C546.TCGA-H6-8124-11A-01D-2396-08.8_gdc_realn.bam a2beedb2-1953-49bd-8f61-61edbcbcf027 C546.TCGA-H6-8124-10A-01D-2396-08.8_gdc_realn.bam 3bae1c4d-ce52-437d-89cb-4c0b4487ae94 270
TARGET-50-CAAAAR-11A-01D_hg19_Illumina_gdc_realn.bam 713008ef-8cf2-4aca-a60d-f6c903f6be9c TARGET-50-CAAAAR-10A-01D_hg19_Illumina_gdc_realn.bam 99035ec4-c898-4a7b-bbdd-0f0daf4b10ec 282
TARGET-50-PAJMVC-11A-01D_hg19_Illumina_gdc_realn.bam 2a7d6ac7-e0f6-498a-9fe0-f9b5e2cc69ee TARGET-50-PAJMVC-10A-01D_hg19_Illumina_gdc_realn.bam 0ce4092f-ad2f-444b-bb5a-186a11b7d6b2 283
TARGET-50-PAKECR-11A-01D_hg19_Illumina_gdc_realn.bam 73c32a1e-6a14-4f0c-aa3e-ce68576aa874 TARGET-50-PAKECR-10A-01D_hg19_Illumina_gdc_realn.bam f3fa5dc3-67c0-48fd-8ea9-90c0bbaca03f 284
TCGA-A3-A6NJ-11A-11D-A33K-10_Illumina_gdc_realn.bam 14b22ebe-5c09-4f8c-b4a8-a23c8c17e574 TCGA-A3-A6NJ-10A-01D-A33K-10_Illumina_gdc_realn.bam faa68002-60ec-477d-8a33-b33fb1e524c8 285
TCGA-A3-A6NL-11A-11D-A33K-10_Illumina_gdc_realn.bam 916d1625-b950-47ae-96b9-454b67da0d06 TCGA-A3-A6NL-10A-01D-A33K-10_Illumina_gdc_realn.bam 8a1336fe-9cc8-4315-8a17-5f0dd6627c07 286
TCGA-A4-A4ZT-11A-11D-A26P-10_Illumina_gdc_realn.bam b9bfbad0-d491-4253-ab01-91c5dd39af81 TCGA-A4-A4ZT-10A-01D-A26P-10_Illumina_gdc_realn.bam 9b5a899a-21b9-46ac-9b15-668eeb9121a1 287
TCGA-A4-A57E-11A-11D-A26P-10_Illumina_gdc_realn.bam e03827d3-89e8-41ab-9bd6-eabc28fb32e4 TCGA-A4-A57E-10A-01D-A26P-10_Illumina_gdc_realn.bam 8739e471-8637-4153-8e8b-1d7ef5f05bf5 288
TCGA-A4-A5XZ-11A-11D-A31X-10_Illumina_gdc_realn.bam 3f59243b-c96e-496d-bfdc-e051992f9fb5 TCGA-A4-A5XZ-10A-01D-A31X-10_Illumina_gdc_realn.bam 4f2b67be-b980-48af-b63f-033679b24121 289
TCGA-A4-A6HP-11A-12D-A31X-10_Illumina_gdc_realn.bam 69d220d1-310f-43bf-8c5e-43eedc2ccbd2 TCGA-A4-A6HP-10A-01D-A31X-10_Illumina_gdc_realn.bam e6baf43a-d995-44bf-a968-f407ea0ea651 290
TCGA-A6-2675-11A-01D-1719-10_Illumina_gdc_realn.bam e971453b-7f65-4bd2-b528-a6440ef9f414 TCGA-A6-2675-10A-01D-1719-10_hg19_Illumina_gdc_realn.bam 20734308-449b-4679-ba15-2864cef7f397 293
TCGA-A6-2677-11A-01D-1554-10_Illumina_gdc_realn.bam 1fb4a301-8529-4359-bf74-ba0c4c0ea2ce TCGA-A6-2677-10A-01D-A270-10_Illumina_gdc_realn.bam 20cdef88-1b7e-4a71-9245-dd0a88f9e8ff 294
TCGA-A6-2678-11A-01D-1554-10_Illumina_gdc_realn.bam bef9fb5b-b039-42f6-8211-0d731bbf8a9b TCGA-A6-2678-10A-01D-1953-10_gapfillers_Illumina_gdc_realn.bam 32f54007-cc22-472b-9752-cdf99211a755 295
TCGA-A6-2679-11A-01D-1554-10_Illumina_gdc_realn.bam 68b23b5d-f7b7-4a09-af9a-44e1cf284f32 TCGA-A6-2679-10A-01D-2188-10_hg19_Illumina_gdc_realn.bam 4b4502d4-27c3-4bd6-9f37-229efd347756 296
TCGA-A6-2680-11A-01D-1554-10_Illumina_gdc_realn.bam a4eb0f9c-20da-48b8-a7cc-f0b3204cf98d TCGA-A6-2680-10A-01D-2188-10_Illumina_gdc_realn.bam 00ec5e0d-ffb4-4975-9bec-75d88a5a5411 297
TCGA-A6-2681-11A-01D-1554-10_hg19_Illumina_gdc_realn.bam 0da1dd78-ec6b-44e9-8e6f-473c008118aa TCGA-A6-2681-10A-01D-2188-10_hg19_Illumina_gdc_realn.bam e52fa5db-671e-4f0f-8279-01b66bd71069 298
TCGA-A6-2682-11A-01D-1554-10_Illumina_gdc_realn.bam e5da4acd-0b3a-422f-80f5-4002f19def6f TCGA-A6-2682-10A-01D-2188-10_Illumina_gdc_realn.bam c6980d7e-8e22-49d7-9353-f8ed639b8a6a 299
TCGA-A6-2683-11A-01D-1554-10_Illumina_gdc_realn.bam edf9a91e-bb7a-46d1-9da5-5f4a3d59aacc TCGA-A6-2683-10A-01D-1953-10_gapfillers_Illumina_gdc_realn.bam 656714d1-f7ca-4685-a883-2386653d4b62 300
TCGA-A6-2684-11A-01D-1554-10_Illumina_gdc_realn.bam 89561e80-9ad3-4cc9-9965-f273e207e8fe TCGA-A6-2684-10A-01D-A270-10_Illumina_gdc_realn.bam 672d4d03-94b2-4ec4-8193-883a51313fcb 301
TCGA-A6-3807-11A-01W-0995-10_hg19_Illumina_gdc_realn.bam c7d84f43-f8e3-4267-8878-acc01160a232 TCGA-A6-3807-10A-01D-1459-10_hg19_Illumina_gdc_realn.bam b3cecfc2-7d45-4bb6-996e-7265f6668d66 304
TCGA-A6-3808-11A-01W-0995-10_Illumina_gdc_realn.bam ce815d1c-d651-43a6-9c5f-51f9d7dface2 TCGA-A6-3808-10A-01D-1459-10_hg19_Illumina_gdc_realn.bam b75e576b-5338-49b1-8f5b-281f5c30ebc9 305
TCGA-A6-3810-11A-01W-0995-10_hg19_Illumina_gdc_realn.bam d9733444-4c49-44bb-8374-48120f2a7dd1 TCGA-A6-3810-10A-01D-A270-10_Illumina_gdc_realn.bam c0434a5a-7463-47a9-955d-69625f69ec9b 306
TCGA-A6-4107-11A-01D-1554-10_Illumina_gdc_realn.bam 77b3b571-3e03-4445-8b1b-a54b6687dc6e TCGA-A6-4107-10A-01D-2188-10_Illumina_gdc_realn.bam 8c42abcb-73b2-403a-ba83-b26b36f43696 307
TCGA-A6-5657-11A-01D-1650-10_Illumina_gdc_realn.bam b14120b3-bfd9-4d4c-b2f7-66b69270384e TCGA-A6-5657-10A-01D-1650-10_hg19_Illumina_gdc_realn.bam d19db856-c9bf-4b6e-bdbf-bc60c1f7d865 308
TCGA-A6-5659-11A-01D-1650-10_Illumina_gdc_realn.bam 61469e45-25e3-43c5-b58c-1c6d6fdd0bb0 TCGA-A6-5659-10A-01D-A270-10_Illumina_gdc_realn.bam f8d25880-1498-4583-9a89-4c09ce7087c9 309
TCGA-A6-5660-11A-01D-1650-10_hg19_Illumina_gdc_realn.bam 24ea8f0c-81cb-4083-afd1-72b85f0e8a2d TCGA-A6-5660-10A-01D-1650-10_Illumina_gdc_realn.bam b3d797d6-6505-487e-b99a-729941480be2 310
TCGA-A6-5662-11A-01D-1650-10_Illumina_gdc_realn.bam 67941aa9-14de-4e05-b7c8-3e079fd32ba7 TCGA-A6-5662-10A-01D-1650-10_hg19_Illumina_gdc_realn.bam b69223e6-4f38-435b-a795-272950f23333 312
TCGA-A6-5665-11A-01D-1650-10_Illumina_gdc_realn.bam 24edfbe5-7862-41fe-b456-5efd06b7e3ac TCGA-A6-5665-10A-01D-1650-10_hg19_Illumina_gdc_realn.bam a03d8ee9-c8b7-4a0c-9537-24ba0d952b39 313
TCGA-A6-5666-11A-01D-1650-10_Illumina_gdc_realn.bam 6bda5b10-a09a-42d0-bd52-f93c2b532423 TCGA-A6-5666-10A-01D-1650-10_hg19_Illumina_gdc_realn.bam f3baa4da-4b45-434a-9ef2-dff37b2dd85c 314
TCGA-A6-5667-11A-01D-1719-10_Illumina_gdc_realn.bam 3452da56-5668-4cc7-9943-0f89899536e1 TCGA-A6-5667-10A-01D-1719-10_Illumina_gdc_realn.bam c3df8407-2ace-475a-849d-50f67388445e 315
TCGA-A7-A0CE-11A-21W-A100-09_IlluminaGA-DNASeq_exome_gdc_realn.bam eee8d4d0-d524-47f5-b076-6ad6216de1a3 TCGA-A7-A0CE-10A-01W-A021-09_IlluminaGA-DNASeq_exome_gdc_realn.bam 8c499a47-c2e0-4212-89cd-11205363cc78 316
TCGA-A7-A0D9-11A-53W-A100-09_HOLD_QC_PENDING_IlluminaGA-DNASeq_exome_gdc_realn.bam dda70534-0d4d-4c30-9c6a-fb3c39396fb0 TCGA-A7-A0D9-10A-01W-A071-09_HOLD_QC_PENDING_IlluminaGA-DNASeq_exome_gdc_realn.bam c10da9b0-a70a-4962-95b0-d3454e7e397e 317
TCGA-A7-A0DB-11A-33W-A100-09_IlluminaGA-DNASeq_exome_gdc_realn.bam 91081819-79c8-4de6-bfdb-742df760c08b TCGA-A7-A0DB-10A-01W-A021-09_IlluminaGA-DNASeq_exome_gdc_realn.bam b8e3cc00-0289-4d48-81ed-256abbe4bf4b 318
TCGA-A7-A13E-11A-61D-A12Q-09_IlluminaGA-DNASeq_exome_gdc_realn.bam bd7e6f8f-7213-4ded-a8ca-3c73c7b8d918 TCGA-A7-A13E-10A-01D-A12Q-09_IlluminaGA-DNASeq_exome_gdc_realn.bam 834f78b5-717e-43fc-b43f-cf47dd66eda4 319
TCGA-A7-A13F-11A-42D-A12Q-09_IlluminaGA-DNASeq_exome_gdc_realn.bam 471d1e10-7c79-44f9-a373-bd3e510b6155 TCGA-A7-A13F-10A-01D-A12Q-09_IlluminaGA-DNASeq_exome_gdc_realn.bam 8404974d-40e8-40c8-8d1a-207709add43a 320
TCGA-AA-3519-11A-01D-1554-10_Illumina_gdc_realn.bam 37579f2d-2f83-4375-b357-5bced7d4b9d6 TCGA-AA-3519-10A-01D-1953-10_gapfillers_Illumina_gdc_realn.bam f2c20a17-c760-49cf-808a-732ce583ccf9 323
TCGA-AA-3522-11A-01D-1554-10_Illumina_gdc_realn.bam 9a498ae7-0ff5-48c5-8a94-90a2227d0dfa TCGA-AA-3522-10A-01D-1953-10_gapfillers_Illumina_gdc_realn.bam 31a5ded3-238d-4b46-8b5c-5d0bcfcdd9e7 324
TCGA-AA-3524-11A-01D-1554-10_Illumina_gdc_realn.bam 7bc10cae-903b-479b-934c-13fa89385153 TCGA-AA-3524-10A-01W-0831-10_gapfillers_Illumina_gdc_realn.bam 4d59b410-2b86-4ce7-8241-8c13e9ee30d0 325
TCGA-AA-3526-11A-01D-1554-10_Illumina_gdc_realn.bam 41e9471d-28d6-4919-ab4b-fe47d68f1277 TCGA-AA-3526-10A-01W-0831-10_gapfillers_Illumina_gdc_realn.bam 1c515e50-c51c-411e-9197-2dc556ffc9fa 326
TCGA-AA-3527-11A-01D-1554-10_Illumina_gdc_realn.bam 3710fd20-4591-4f36-937a-afcd26e53777 TCGA-AA-3527-10A-01D-1953-10_gapfillers_Illumina_gdc_realn.bam 04d12aa0-e449-4ae1-8425-2d0bcf827204 327
TCGA-AA-3529-11A-01D-1554-10_Illumina_gdc_realn.bam 14ab5607-db83-48cf-ad04-003b49d0cc71 TCGA-AA-3529-10A-01W-0831-10_gapfillers_Illumina_gdc_realn.bam 31fd8960-d28a-4906-aba7-44d1ac7e8073 328
TCGA-AA-3530-11A-01D-1554-10_hg19_Illumina_gdc_realn.bam 8df61da3-4989-428f-861f-c0d4113fa794 TCGA-AA-3530-10A-01W-0995-10_hg19_Illumina_gdc_realn.bam 0feab601-cd75-4826-8cfc-9accc3eba859 329
TCGA-AA-3531-11A-01D-1554-10_Illumina_gdc_realn.bam 97343b6a-15e4-4a69-98a3-ae8d81a07931 TCGA-AA-3531-10A-01D-1953-10_gapfillers_Illumina_gdc_realn.bam 561acf76-e365-4237-a507-64d82a5fea72 330
TCGA-AF-2689-11A-01D-1554-10_Illumina_gdc_realn.bam d79623e8-5894-4341-8014-7bc041cbc5e3 TCGA-AF-2689-10A-01D-1989-10_gapfillers_Illumina_gdc_realn.bam 67976b6b-4f96-463b-9b13-d7985f56ebd2 333
TCGA-AF-2691-11A-01D-1554-10_Illumina_gdc_realn.bam 12ba01f4-142d-4441-8c44-50eb42e9ce89 TCGA-AF-2691-10A-01D-1989-10_gapfillers_Illumina_gdc_realn.bam 8c81b31f-8ef7-4766-bb94-2d63eb539f74 334
TCGA-AF-2692-11A-01D-1554-10_Illumina_gdc_realn.bam 4d30d984-02f7-48f2-985d-55712afb3ce2 TCGA-AF-2692-10A-01D-1989-10_gapfillers_Illumina_gdc_realn.bam d00cb8a9-4f77-458d-b89c-12be6e73a742 335
TCGA-AF-3400-11A-01D-1554-10_Illumina_gdc_realn.bam 53fef319-45e2-4dc6-ba57-062a7ed709b1 TCGA-AF-3400-10A-01D-1989-10_gapfillers_Illumina_gdc_realn.bam 86b5cbb3-3034-444d-a2b3-f26081ab9fdd 336
TCGA-AF-5654-11A-11D-1657-10_Illumina_gdc_realn.bam 55be65ac-9088-44a7-8f3c-e5049b51062b TCGA-AF-5654-10A-01D-1657-10_hg19_Illumina_gdc_realn.bam cf4ac885-a72f-4fa7-907e-386a3043ef8c 337
TCGA-B1-A47M-11A-11D-A25F-10_Illumina_gdc_realn.bam ff7b20a4-3b2a-411b-a818-621cf308a046 TCGA-B1-A47M-10A-01D-A25F-10_Illumina_gdc_realn.bam 2e17dea7-f3af-4949-b281-94870491f492 338
TCGA-B2-5633-11A-01D-1534-10_Illumina_gdc_realn.bam c03e23dd-a824-4b5b-b362-c36b639c2fe9 TCGA-B2-5633-10A-01D-A270-10_Illumina_gdc_realn.bam cd76d1ad-af9f-48f3-a798-3dc38370eb22 339
TCGA-B2-5635-11A-01D-1534-10_Illumina_gdc_realn.bam c7470c34-3c64-4e68-ba75-39427ac2f5c1 TCGA-B2-5635-10A-01D-A270-10_Illumina_gdc_realn.bam 5cb12939-b9a0-4dd8-85e1-42c7f2ee06e0 340
TCGA-B2-5636-11A-01D-1534-10_Illumina_gdc_realn.bam c36246fd-40d7-43b4-a75a-88c8a61fa9f2 TCGA-B2-5636-10A-01D-1535-10_Illumina_gdc_realn.bam 63c4ce7b-5301-4e44-9920-cbce7b774467 341
TCGA-B2-5641-11A-01D-1534-10_Illumina_gdc_realn.bam 7f4bb002-d662-4a08-8885-cf2e84a8eb9b TCGA-B2-5641-10A-01D-1535-10_Illumina_gdc_realn.bam e125b663-aeeb-4c00-aea1-84fc3cb8ece3 343
TCGA-B2-A4SR-11A-11D-A25V-10_Illumina_gdc_realn.bam a1e6a2cf-67d9-4fb3-854d-78ca7fa94d7a TCGA-B2-A4SR-10A-01D-A25V-10_Illumina_gdc_realn.bam b8def22e-72c3-4251-855c-fdbe5ef318ab 344
TCGA-B3-A6W5-11A-21D-A33Q-10_Illumina_gdc_realn.bam 8297edf2-19a8-40f8-984a-7eddc700ec19 TCGA-B3-A6W5-10A-01D-A33Q-10_Illumina_gdc_realn.bam e3a34790-6fa8-4cb0-818d-7b190f82dce8 345
TCGA-B8-5546-11A-01D-1534-10_Illumina_gdc_realn.bam cce99495-c6ce-41b1-8da4-33c03274505c TCGA-B8-5546-10A-01D-1535-10_Illumina_gdc_realn.bam 8d03cc44-05d5-4182-bd98-ecde974d49a2 346
TCGA-B8-5549-11A-01D-1534-10_Illumina_gdc_realn.bam f496540d-7962-42c5-8704-60a49954ae72 TCGA-B8-5549-10A-01D-1535-10_Illumina_gdc_realn.bam 2850294c-7ee8-4a26-b1e0-4023788b01c4 347
TCGA-B8-5551-11A-01D-1534-10_Illumina_gdc_realn.bam 59936302-9c67-475b-a097-079010267499 TCGA-B8-5551-10A-01D-1535-10_Illumina_gdc_realn.bam 0a39e467-7e19-421c-bd56-c3a3c8088e5c 348
TCGA-BH-A0AY-11A-23W-A100-09_IlluminaGA-DNASeq_exome_gdc_realn.bam 2ecc0325-3973-48b3-b53b-bb52aea5a9bc TCGA-BH-A0AY-10A-01W-A021-09_IlluminaGA-DNASeq_exome_gdc_realn.bam a0471f14-72bb-4713-8a7e-8bbfc3986a2a 349
TCGA-BH-A0B7-11A-34D-A10Y-09_IlluminaGA-DNASeq_exome_2_gdc_realn.bam d9aca915-ea30-4939-af59-edaef8872396 TCGA-BH-A0B7-10A-01D-A110-09_IlluminaGA-DNASeq_exome_1_gdc_realn.bam 5ab0f086-6aed-4be8-9245-a0a084768e72 350
TCGA-BH-A0BO-11A-11D-A12B-09_IlluminaGA-DNASeq_exome_gdc_realn.bam 1c984563-322f-4b14-b1a3-e23979dc6ad5 TCGA-BH-A0BO-10A-01D-A12B-09_IlluminaGA-DNASeq_exome_gdc_realn.bam 9cd3fca6-541d-453e-83b2-433002d1fe47 356
TCGA-BH-A0BV-11A-31W-A100-09_IlluminaGA-DNASeq_exome_gdc_realn.bam 56dfc492-2b1f-4494-9ba9-14a70601ae21 TCGA-BH-A0BV-10A-01W-A021-09_IlluminaGA-DNASeq_exome_gdc_realn.bam 23baa681-8c18-4399-849c-24c1e309bd64 357
TCGA-BH-A0BW-11A-12D-A10Y-09_IlluminaGA-DNASeq_exome_gdc_realn.bam ab130f7f-4070-436e-ac7b-c1b7aecb9dc6 TCGA-BH-A0BW-10A-01D-A110-09_IlluminaGA-DNASeq_exome_gdc_realn.bam 02bf46ef-9335-4264-8e24-376975125493 358
TCGA-BH-A0C0-11A-21W-A100-09_HOLD_QC_PENDING_IlluminaGA-DNASeq_exome_gdc_realn.bam 9778035c-19ff-4a89-bba2-fa83e51d9add TCGA-BH-A0C0-10A-01W-A071-09_HOLD_QC_PENDING_IlluminaGA-DNASeq_exome_gdc_realn.bam 54d76e3a-d7bf-4082-b9c9-9de27f09cbef 359
TCGA-BH-A0DE-11A-23D-A10Y-09_IlluminaGA-DNASeq_exome_gdc_realn.bam f94ec35d-5929-4200-8feb-fbfed40546c3 TCGA-BH-A0DE-10A-02D-A110-09_IlluminaGA-DNASeq_exome_gdc_realn.bam 0816dd26-fdee-4a1d-9de8-1be78e168279 360
TCGA-BH-A0DQ-11A-12D-A100-09_IlluminaGA-DNASeq_exome_gdc_realn.bam e64c9653-9fb0-49ca-9655-9e549162a4d4 TCGA-BH-A0DQ-10A-01D-A099-09_IlluminaGA-DNASeq_exome_gdc_realn.bam fb7cd38c-3b4f-432c-8eae-ed92576861c2 365
TCGA-BH-A0DZ-11A-22W-A100-09_IlluminaGA-DNASeq_exome_gdc_realn.bam aebf04d4-4a1b-4a50-b5f1-0f9e2c273121 TCGA-BH-A0DZ-10A-01W-A021-09_IlluminaGA-DNASeq_exome_gdc_realn.bam c42e5ea9-b1a9-4564-a794-8b021d4575a6 366
TCGA-BH-A0E0-11A-13W-A10F-09_HOLD_QC_PENDING_IlluminaGA-DNASeq_exome_gdc_realn.bam 59fa57c8-7435-4499-bd09-bf969596c18d TCGA-BH-A0E0-10A-01W-A071-09_HOLD_QC_PENDING_IlluminaGA-DNASeq_exome_gdc_realn.bam 4bf6900a-97d3-45b8-b103-985de04ed214 367
TCGA-BH-A0E1-11A-13W-A100-09_HOLD_QC_PENDING_IlluminaGA-DNASeq_exome_gdc_realn.bam f6fed4ed-a853-40aa-bf7b-e627efd402d6 TCGA-BH-A0E1-10A-01W-A071-09_HOLD_QC_PENDING_IlluminaGA-DNASeq_exome_gdc_realn.bam 8e3a1a1c-2de5-4efe-b8d0-218391c8a6be 368
TCGA-BH-A0H5-11A-62D-A10Y-09_IlluminaGA-DNASeq_exome_gdc_realn.bam adfb1a86-fbb1-4b71-9c04-f99399f20d70 TCGA-BH-A0H5-10A-01D-A110-09_IlluminaGA-DNASeq_exome_gdc_realn.bam e22e386b-b1c5-4568-86eb-31233195542c 369
TCGA-BH-A0H7-11A-13W-A100-09_HOLD_QC_PENDING_IlluminaGA-DNASeq_exome_gdc_realn.bam abfca562-d328-40d2-83bb-e584123b0f28 TCGA-BH-A0H7-10A-01W-A071-09_HOLD_QC_PENDING_IlluminaGA-DNASeq_exome_gdc_realn.bam 31232215-bfa4-4679-97a6-6893df994e7d 370
TCGA-DD-A115-11A-12D-A12Z-10_Illumina_gdc_realn.bam 500e8a67-62b6-4ba8-a33f-d9e2c714dae2 TCGA-DD-A115-10A-01D-A12Z-10_Illumina_gdc_realn.bam 9f56b54c-d1b8-4d8f-850a-fa66cbc9d127 375
TCGA-DD-A116-11A-11D-A12Z-10_Illumina_gdc_realn.bam d9e11cf1-2230-4277-a2dd-367f6dbe2eb8 TCGA-DD-A116-10A-01D-A12Z-10_Illumina_gdc_realn.bam 6f9f4fd3-0812-47ce-9236-4457079b3d03 376
TCGA-DD-A119-11A-11D-A12Z-10_Illumina_gdc_realn.bam 8d0e2f78-e1b2-425c-b18f-71a18c20c180 TCGA-DD-A119-10A-01D-A12Z-10_Illumina_gdc_realn.bam 5e04dd57-ee3d-4457-ad90-df6166e095a3 377
TCGA-DD-A11A-11A-11D-A12Z-10_Illumina_gdc_realn.bam 64b3b3b1-1e85-41f5-ab3f-97497ee5521c TCGA-DD-A11A-10A-01D-A12Z-10_Illumina_gdc_realn.bam fd53a59c-66c1-4277-a9ef-d81d60f10ca5 378
TCGA-DD-A11B-11A-11D-A12Z-10_Illumina_gdc_realn.bam 9ce23af1-1e08-43d8-88ce-f8885e61ba94 TCGA-DD-A11B-10A-01D-A12Z-10_Illumina_gdc_realn.bam 3e4c7bf8-4e44-4766-a46f-9e282c039983 379
TCGA-DD-A1EB-11A-11D-A12Z-10_Illumina_gdc_realn.bam 1b6f5fb7-e887-4d67-8623-75238d6b3879 TCGA-DD-A1EB-10A-01D-A12Z-10_Illumina_gdc_realn.bam fdb7a705-558a-42be-af03-58b631b93140 380
TCGA-DD-A1EG-11A-11D-A20W-10_Illumina_gdc_realn.bam ef2cb7d0-8b1b-4514-aa88-195fa5fd384e TCGA-DD-A1EG-10A-01D-A20W-10_Illumina_gdc_realn.bam 4b282b06-e174-4c6f-8b35-b353b3fd8894 383
TCGA-DD-A1EH-11A-11D-A12Z-10_Illumina_gdc_realn.bam a9ef732a-06ab-4cb6-82a3-5006b584f846 TCGA-DD-A1EH-10A-01D-A12Z-10_Illumina_gdc_realn.bam 180123e2-f97a-4979-a6d3-03fd3df6ad4d 384
TCGA-DD-A4NG-11A-11D-A27I-10_Illumina_gdc_realn.bam c3d920bc-5085-460e-9e72-e4036c23bf4c TCGA-DD-A4NG-10A-01D-A27I-10_Illumina_gdc_realn.bam 5fda2a19-508c-4c76-9734-47d403553e5e 385
TCGA-DD-A4NH-11A-11D-A27I-10_Illumina_gdc_realn.bam fe426765-bfee-40d1-ad76-7ef48b3f35e1 TCGA-DD-A4NH-10A-01D-A27I-10_Illumina_gdc_realn.bam e6fb0b30-4463-4f70-86aa-c7186a765c12 386
TCGA-DD-A4NI-11A-11D-A27I-10_Illumina_gdc_realn.bam d4f6eacc-5a4d-4b9f-97ef-9ba17d6d0ec9 TCGA-DD-A4NI-10A-01D-A27I-10_Illumina_gdc_realn.bam 84a4f840-c2f9-448d-a0f9-b9398e6f5efa 387
TCGA-DD-A4NJ-11A-11D-A27I-10_Illumina_gdc_realn.bam 53e0ffd4-727c-4754-9319-bd70e1d49d8a TCGA-DD-A4NJ-10A-01D-A27I-10_Illumina_gdc_realn.bam d60607b8-3a81-4cc8-9fb9-9025e93ab72d 388
TCGA-DD-A4NK-11A-11D-A28X-10_Illumina_gdc_realn.bam 4a7c9a28-3b6d-4855-bb9a-6cdfe58c57c2 TCGA-DD-A4NK-10A-01D-A28X-10_Illumina_gdc_realn.bam f95070b3-bf82-4af9-9a74-247c840b2e20 389
TCGA-DD-A4NN-11A-11D-A28X-10_Illumina_gdc_realn.bam 4fec0419-d358-4921-974d-39a0a9408a8f TCGA-DD-A4NN-10A-01D-A28X-10_Illumina_gdc_realn.bam 672c5bd9-e95c-44d1-abf9-25ab1864b889 390
TCGA-DD-A4NR-11A-11D-A30V-10_Illumina_gdc_realn.bam 503047bd-d2fc-4c0c-8bf1-a350b5eb615a TCGA-DD-A4NR-10A-01D-A30V-10_Illumina_gdc_realn.bam 4202dfb6-c932-4128-949e-b73cbbd630b2 394
TCGA-DD-A4NS-11A-11D-A30V-10_Illumina_gdc_realn.bam 0779832d-50c9-43d9-8f71-e014b231f7ae TCGA-DD-A4NS-10A-01D-A30V-10_Illumina_gdc_realn.bam 7bbed062-a0a0-4c7a-adbf-76198cbe1792 395
TCGA-DD-A4NV-11A-11D-A30V-10_Illumina_gdc_realn.bam 597fc67f-0d21-410e-804d-8b1da6dd7906 TCGA-DD-A4NV-10A-01D-A30V-10_Illumina_gdc_realn.bam 94aed3b9-e1e7-4feb-99bd-ea75ec33b9b0 396
TCGA-E2-A14Y-11A-33D-A12B-09_IlluminaGA-DNASeq_exome_gdc_realn.bam e9c53530-a321-46c4-bf4c-d423c0cb7fc8 TCGA-E2-A14Y-10A-01D-A12B-09_IlluminaGA-DNASeq_exome_gdc_realn.bam 7ca340a8-0d1d-48d2-b74e-66b34bc81be5 397
TCGA-E2-A153-11A-31D-A12B-09_IlluminaGA-DNASeq_exome_gdc_realn.bam 1c3f2e11-952a-4e47-a8b9-25f4fe4bf205 TCGA-E2-A153-10A-01D-A12B-09_IlluminaGA-DNASeq_exome_gdc_realn.bam a72c8757-156e-4db5-85f5-b577bc9d40ec 398
TCGA-E2-A158-11A-22D-A12B-09_IlluminaGA-DNASeq_exome_gdc_realn.bam 58fe3067-8198-486e-b0b2-286dc4451c39 TCGA-E2-A158-10A-01D-A12B-09_IlluminaGA-DNASeq_exome_gdc_realn.bam 8d24ecb3-47ea-42ad-b819-c11afb37af22 399
TCGA-E2-A15K-11A-13D-A12Q-09_IlluminaGA-DNASeq_exome_gdc_realn.bam 6299f114-932a-42c0-8cab-bebb12c996fc TCGA-E2-A15K-10A-01D-A12Q-09_IlluminaGA-DNASeq_exome_gdc_realn.bam 0a4fc93a-bded-4934-a5b1-9cf48e2981bb 400
TCGA-E2-A15M-11A-22D-A12B-09_IlluminaGA-DNASeq_exome_gdc_realn.bam b2138cda-519f-4691-bf1c-0f863b55d888 TCGA-E2-A15M-10A-01D-A12B-09_IlluminaGA-DNASeq_exome_gdc_realn.bam 71326962-2974-4689-8660-14c97cffb3a4 402
TCGA-E2-A1B5-11A-23D-A12Q-09_IlluminaGA-DNASeq_exome_gdc_realn.bam 64307494-c3c6-4d74-bf4b-938f7706909e TCGA-E2-A1B5-10A-01D-A12Q-09_IlluminaGA-DNASeq_exome_gdc_realn.bam a583d8b9-f90d-4e3f-b43c-0a482102b037 403
TCGA-E2-A1BC-11A-32D-A12Q-09_IlluminaGA-DNASeq_exome_gdc_realn.bam 45b8b995-c477-4358-8050-6d41c267b467 TCGA-E2-A1BC-10A-01D-A12Q-09_IlluminaGA-DNASeq_exome_gdc_realn.bam 444a5094-004a-4747-94d4-186fbc60dcd2 404
TCGA-EP-A12J-11A-11D-A12Z-10_Illumina_gdc_realn.bam 68a8224f-ef01-4a53-a84d-260d644b6f86 TCGA-EP-A12J-10A-01D-A12Z-10_Illumina_gdc_realn.bam 7abd19b5-5f08-4906-8f8a-204eac3415ca 405
TCGA-EP-A26S-11A-12D-A16V-10_Illumina_gdc_realn.bam 02fd8aea-a732-4ec1-b94c-eeb955e98406 TCGA-EP-A26S-10A-01D-A16V-10_Illumina_gdc_realn.bam 156f6239-90d1-4c99-9dce-cfba83554fab 406
TCGA-EP-A3RK-11A-11D-A22F-10_Illumina_gdc_realn.bam 435b6bb7-a1e1-4950-919a-eced8d9c7565 TCGA-EP-A3RK-10A-01D-A22F-10_Illumina_gdc_realn.bam a8d6ff32-209c-4dd8-9419-d3f7cfdf2db0 407
TCGA-FV-A3I1-11A-11D-A22F-10_Illumina_gdc_realn.bam 841900ab-4c2e-48a4-9eed-d1e42145d1a1 TCGA-FV-A3I1-10A-01D-A22F-10_Illumina_gdc_realn.bam 9b83505b-2f4c-47e8-a4ba-bc61d7dc8a20 408
TCGA-FV-A495-11A-11D-A25V-10_Illumina_gdc_realn.bam cebbd768-8548-463e-bbfa-fa981d62ace5 TCGA-FV-A495-10A-01D-A25V-10_Illumina_gdc_realn.bam 71a8ea40-483c-4850-9e3f-0fa15ea2ada4 409
TCGA-FV-A496-11A-12D-A25V-10_Illumina_gdc_realn.bam 98078fc4-a13e-4ebc-bd2d-c9908995d3b7 TCGA-FV-A496-10A-01D-A25V-10_Illumina_gdc_realn.bam a4d45a62-d276-474a-8b0a-f2886fcd0aa4 410
TCGA-G4-6297-11A-01D-1719-10_hg19_Illumina_gdc_realn.bam 3bf94eef-e039-4327-aff1-e5e0011b00cb TCGA-G4-6297-10A-01D-1719-10_hg19_Illumina_gdc_realn.bam 756a00db-66d4-453c-8353-19af38b2ede5 412
TCGA-G4-6298-11A-01D-1719-10_hg19_Illumina_gdc_realn.bam 32819740-c892-477e-ace1-5ebc7c9031fe TCGA-G4-6298-10A-01D-1719-10_hg19_Illumina_gdc_realn.bam 3770dcec-e581-49cc-a63e-18065084a27d 413
TCGA-G4-6302-11A-01D-1719-10_hg19_Illumina_gdc_realn.bam 8d45e62d-4f3b-4284-b1f0-98194d902fef TCGA-G4-6302-10A-01D-1719-10_hg19_Illumina_gdc_realn.bam a11c11e1-a787-4e8a-8408-6f7829970b5b 414
TCGA-G4-6311-11A-01D-1719-10_hg19_Illumina_gdc_realn.bam a079d49a-0d9f-4793-89cb-fe914c74d626 TCGA-G4-6311-10A-01D-1720-10_Illumina_gdc_realn.bam 7017fa31-4878-43d5-b5c1-0c29a0edbc3b 415
TCGA-G4-6314-11A-01D-1719-10_hg19_Illumina_gdc_realn.bam 3393c7e0-f452-4ed8-b592-2c820bb9f9f1 TCGA-G4-6314-10A-01D-1720-10_hg19_Illumina_gdc_realn.bam c27ae7ca-a798-42cd-88cf-a879b0fff64e 416
TCGA-G4-6320-11A-01D-1719-10_hg19_Illumina_gdc_realn.bam 09d399af-60fb-4aa7-899b-75578a291984 TCGA-G4-6320-10A-01D-1720-10_hg19_Illumina_gdc_realn.bam 36b29d7f-1605-46a8-bf9c-041fbf8eb357 417
TCGA-G4-6322-11A-01D-1719-10_hg19_Illumina_gdc_realn.bam 44af7455-f0c2-4adf-a498-f1585612568e TCGA-G4-6322-10A-01D-1720-10_Illumina_gdc_realn.bam 5377eed7-168a-4d2f-b84e-39e9f4463887 418
TCGA-GJ-A6C0-11A-11D-A30V-10_Illumina_gdc_realn.bam f183b9bc-fd4c-43d6-a564-590c6766d052 TCGA-GJ-A6C0-10A-01D-A30V-10_Illumina_gdc_realn.bam b75645d5-bbe5-418d-9c96-0059c1aae420 419
TCGA-GL-A59R-11A-11D-A26P-10_Illumina_gdc_realn.bam 8b295f39-09a0-44a7-8147-31ae9755c7e6 TCGA-GL-A59R-10A-01D-A26P-10_Illumina_gdc_realn.bam 2a7fd534-9b1e-4f43-a24c-5a9bbb3b98a6 420
TCGA-GL-A59T-11A-11D-A28G-10_Illumina_gdc_realn.bam 5efd8a0c-4a3e-4b8d-9515-afc52599d1c0 TCGA-GL-A59T-10A-01D-A28G-10_Illumina_gdc_realn.bam 84e940e5-160a-4ff8-a6b9-3e81401c555d 421
TCGA-GL-A9DD-11A-11D-A370-10_Illumina_gdc_realn.bam 48e0d297-19f2-492c-a3ee-95d73c0ec80e TCGA-GL-A9DD-10A-01D-A370-10_Illumina_gdc_realn.bam afdd4892-a1af-4983-8046-a7649853d696 422
TCGA-KV-A6GD-11A-11D-A31X-10_Illumina_gdc_realn.bam 35f51e3f-059c-406c-a386-a80e9c78c394 TCGA-KV-A6GD-10A-01D-A31X-10_Illumina_gdc_realn.bam 1572b5d6-64c7-43f4-b0ca-2c41c0db2b50 425
TCGA-KV-A74V-11A-11D-A33Q-10_Illumina_gdc_realn.bam 16f171c3-4bdd-4b3b-ab32-7df86698d21f TCGA-KV-A74V-10A-01D-A33Q-10_Illumina_gdc_realn.bam 5828b839-3761-4449-892a-e6007f3dfd60 426
TCGA-LG-A6GG-11A-11D-A30V-10_Illumina_gdc_realn.bam c172c296-c96c-4c00-946c-e99cbfe6969f TCGA-LG-A6GG-10A-01D-A30V-10_Illumina_gdc_realn.bam 7ca94c02-d54a-4836-a62d-c16117c15cfa 427
TCGA-NI-A4U2-11A-11D-A28X-10_Illumina_gdc_realn.bam 0f79ee0f-ff33-44f0-afc5-c5a22590be7f TCGA-NI-A4U2-10A-01D-A28X-10_Illumina_gdc_realn.bam f6157c4f-8d53-475d-a55f-ee9694f7ef41 428
TCGA-Y8-A8RY-11A-11D-A370-10_Illumina_gdc_realn.bam fb44d69e-960c-4a90-a7d8-4d800a11ee9e TCGA-Y8-A8RY-10A-01D-A370-10_Illumina_gdc_realn.bam c68e487f-efb3-4d54-adf2-b47cef59e43b 429
TCGA-Y8-A8RZ-11A-11D-A370-10_Illumina_gdc_realn.bam a028c7d5-d202-4d9b-9da2-9b5b9d971c64 TCGA-Y8-A8RZ-10A-01D-A370-10_Illumina_gdc_realn.bam a4de9e1e-2992-469e-8f98-57e45e1a9cee 430
